Article d2e1a3dedd8959bef684aca93f091ff8 graph analyzed in batch mode at Wed May 15 10:55:59 2019
Article f4eeb1639903bd82cee732f3b6835649 graph analyzed in batch mode at Wed May 15 10:56:00 2019
Article e8b58607d56ece82d001bb370189e250 graph analyzed in batch mode at Wed May 15 10:56:00 2019
Article f4eeb1639903bd82cee732f3b6835649 graph analyzed in batch mode at Wed May 15 10:56:01 2019
Article 34d7884e5ecd3ba682d6a219d54b6d4f graph analyzed in batch mode at Wed May 15 10:56:03 2019
Article 7da7d8b732c1ba8a53cb5318d9b04bff graph analyzed in batch mode at Wed May 15 10:56:03 2019
Article 8d0b0bbb5c47a04be8021252a483a37d graph analyzed in batch mode at Wed May 15 10:56:04 2019
Article 72252262dcc35938e40f7242d617bfd3 graph analyzed in batch mode at Wed May 15 10:56:04 2019
Article fbede26184ea596cb361f9694b0eb305 graph analyzed in batch mode at Wed May 15 10:56:05 2019
Article c1a9ff6646a376de41b6aaf105203e51 graph analyzed in batch mode at Wed May 15 10:56:05 2019
Article 7a4e51704cf747ab29aae48f4cb5ee66 graph analyzed in batch mode at Wed May 15 10:56:06 2019
Article 646fdd882973e6fd91501135d1ea0a6e graph analyzed in batch mode at Wed May 15 10:56:06 2019
Article 547ffdca6c67ca2adc64b3c78d3cd66a graph analyzed in batch mode at Wed May 15 10:56:06 2019
Article 249b04f586a375028ff99c1578490222 graph analyzed in batch mode at Wed May 15 10:56:08 2019
Article 1b507ef8323210d248b3e2878f7db94e graph analyzed in batch mode at Wed May 15 10:56:09 2019
Article d35ef9ffacc37f6cdc6b0ad1dc23fc0a graph analyzed in batch mode at Wed May 15 10:56:09 2019
Article 8bd86349b92226b1ad2bb8684996a7f5 graph analyzed in batch mode at Wed May 15 10:56:10 2019
Article abc3ff59b5b229b8ad28fb67f0c07847 graph analyzed in batch mode at Wed May 15 10:56:11 2019
Article c7070a6918959a18ae3bc8f689b4c434 graph analyzed in batch mode at Wed May 15 10:56:11 2019
Article 1e92af2bf0d9a8db0e6ea3df411e8b84 graph analyzed in batch mode at Wed May 15 10:56:13 2019
Article 93f5a2bd9b15e28815305ae7fa194ceb graph analyzed in batch mode at Wed May 15 10:56:13 2019
Article 2fea7b9812e7eed6f474bb822e2ae36f graph analyzed in batch mode at Wed May 15 10:56:13 2019
Article 3276482e586bed8a1997b19c8ed845e5 graph analyzed in batch mode at Wed May 15 10:56:15 2019
Article bbd5138f2c670bf5bcf929e50f5f88e9 graph analyzed in batch mode at Wed May 15 10:56:16 2019
Article 6452d800c772c5e0e52d5875fd815e2c graph analyzed in batch mode at Wed May 15 10:56:17 2019
Article d7a7122fd60c2852ac76f58d4dedfead graph analyzed in batch mode at Wed May 15 10:56:18 2019
Article b1d3fb1baf9617b078b91d33258721e9 graph analyzed in batch mode at Wed May 15 10:56:18 2019
Article c9e116947b9ce0f4c1f1ba1ad27fe65f graph analyzed in batch mode at Wed May 15 10:56:19 2019
Article 5768b33c7e91154eb311d9fae11c60c6 graph analyzed in batch mode at Wed May 15 10:56:19 2019
Article 23c7ba3938fa4449742918c157d1337c graph analyzed in batch mode at Wed May 15 10:56:21 2019
Article fdc9232c809e4d4bee57f7df9afd0379 graph analyzed in batch mode at Wed May 15 10:56:21 2019
Article e8193f868ea8a92e73732d00e9156ac4 graph analyzed in batch mode at Wed May 15 10:56:23 2019
Article 0215def6981944faa152d08941b96e34 graph analyzed in batch mode at Wed May 15 10:56:23 2019
Article e214741c9f088395aec07eb392e7021f graph analyzed in batch mode at Wed May 15 10:56:24 2019
Article 27de4fb4c9474f85db66b50df08a7f34 graph analyzed in batch mode at Wed May 15 10:56:24 2019
Article 2e3b66800cc13f449ca2b31f6e2cdd95 graph analyzed in batch mode at Wed May 15 10:56:26 2019
Article b20dd32b03b29bb225bb48b3a87495e7 graph analyzed in batch mode at Wed May 15 10:56:26 2019
Article f8937509ccea3c2964d16b18a2dd1cc4 graph analyzed in batch mode at Wed May 15 10:56:27 2019
Article 269572e391a80f040e30ac49ed36d625 graph analyzed in batch mode at Wed May 15 10:56:28 2019
Article c29a1df1c28933e7aa89ae7dd30431f0 graph analyzed in batch mode at Wed May 15 10:56:28 2019
Article 8d9d21f07e335b4bee1f1e66b6c090c8 graph analyzed in batch mode at Wed May 15 10:56:28 2019
Article d95df929f69b76aba8ad735709290760 graph analyzed in batch mode at Wed May 15 10:56:30 2019
Article 91b684b50e64707a8233e31551171657 graph analyzed in batch mode at Wed May 15 10:56:30 2019
Article 8882109bc0d19a91277b38fd87a89389 graph analyzed in batch mode at Wed May 15 10:56:31 2019
Article d87f22aef834d668c13c344f5c73cdf8 graph analyzed in batch mode at Wed May 15 10:56:31 2019
Article e2b97c05d6c8016091584db3fbde15ac graph analyzed in batch mode at Wed May 15 10:56:32 2019
Article 133fa0ba4a77c7a92245312fab067e97 graph analyzed in batch mode at Wed May 15 10:56:32 2019
Article d27f3c1c98cff1ce1c8689c2ceb9bcd2 graph analyzed in batch mode at Wed May 15 10:56:33 2019
Article 4efda62bd2d902a12f28c5c56ee277ab graph analyzed in batch mode at Wed May 15 10:56:33 2019
Article 0e8ed5dca3cee72effe90529c53d8e3e graph analyzed in batch mode at Wed May 15 10:56:34 2019
Article f868f7c30af20b9cf5b8c61035bc5ffe graph analyzed in batch mode at Wed May 15 10:56:35 2019
Article f3ed693215247cf0f174c0c2b3d9e4c8 graph analyzed in batch mode at Wed May 15 10:56:35 2019
Article e153e3d02637a6e23dc3f18ef0df417b graph analyzed in batch mode at Wed May 15 10:56:35 2019
Article ead92ac08fc8e7180510d2aec21b27c1 graph analyzed in batch mode at Wed May 15 10:56:35 2019
Article 17048bb7ffafdd0a5e5b3d3b1adac2e7 graph analyzed in batch mode at Wed May 15 10:56:35 2019
Article ac084f2e47bb65e262c84790ee0c80d8 graph analyzed in batch mode at Wed May 15 10:56:36 2019
Article 075232bf5730ee8fdb0be29839464f4b graph analyzed in batch mode at Wed May 15 10:56:37 2019
Article c863427ff17ac809215dbdb8c95bae32 graph analyzed in batch mode at Wed May 15 10:56:39 2019
Article a547ad2c5fde52a207b55a76df1d81ba graph analyzed in batch mode at Wed May 15 10:56:40 2019
Article 0e85d30d698546841361a884875dcb34 graph analyzed in batch mode at Wed May 15 10:56:40 2019
Article 7a152f0c2d9e862ae06de060d4166f40 graph analyzed in batch mode at Wed May 15 10:56:40 2019
Article 136a8a5bfb7638d87838c16d686603da graph analyzed in batch mode at Wed May 15 10:56:42 2019
Article d8035448a1ea159f394c2e8a0f774368 graph analyzed in batch mode at Wed May 15 10:56:42 2019
Article 54b90e938a235e627758c9c4a9c72771 graph analyzed in batch mode at Wed May 15 10:56:43 2019
Article 67dd0cb81ff7a4af801c47f296492aa7 graph analyzed in batch mode at Wed May 15 10:56:44 2019
Article 38019ae2f028a3ee7cf970bebad78e91 graph analyzed in batch mode at Wed May 15 10:56:44 2019
Article 5abb55714df5f1490ba91d846835ba33 graph analyzed in batch mode at Wed May 15 10:56:44 2019
Article 1f5acc96797d28b446a072646838caee graph analyzed in batch mode at Wed May 15 10:56:46 2019
Article 40578461d3335fbcac75f254fb8f0aa3 graph analyzed in batch mode at Wed May 15 10:56:47 2019
Article fbe94f40a2a18cc8596f2e371a0c06de graph analyzed in batch mode at Wed May 15 10:56:47 2019
Article 0cf9fa29640d503376cb41258517c98f graph analyzed in batch mode at Wed May 15 10:56:48 2019
Article fa18ef1f4b0b6363781b88bf1d11b9bf graph analyzed in batch mode at Wed May 15 10:56:49 2019
Article 103091890c574a18cd59aefaf392ef05 graph analyzed in batch mode at Wed May 15 10:56:49 2019
Article c04a66c5260e7c9eb65a24c4c00fe2a7 graph analyzed in batch mode at Wed May 15 10:56:50 2019
Article c1144198485189936a40bc6473af2ef7 graph analyzed in batch mode at Wed May 15 10:56:50 2019
Article 0d44e183f8987e4139cb8fdade630cea graph analyzed in batch mode at Wed May 15 10:56:50 2019
Article 82a3103e8413454b4c0cbd5506eab663 graph analyzed in batch mode at Wed May 15 10:56:51 2019
Article e541837fde229aa261e1a8b7be7ba038 graph analyzed in batch mode at Wed May 15 10:56:51 2019
Article 2df41918b6150b6e1d9a2e19a49f0ff8 graph analyzed in batch mode at Wed May 15 10:56:53 2019
Article e64a4959a928165311d197118247d905 graph analyzed in batch mode at Wed May 15 10:56:53 2019
Article c03c0207e85c4a530dd58b508ddbffc8 graph analyzed in batch mode at Wed May 15 10:56:53 2019
Article 6944c763c410d5c1ff3959058541a07b graph analyzed in batch mode at Wed May 15 10:56:54 2019
Article 105c72eb9f4781d9f022e9c6109be7a9 graph analyzed in batch mode at Wed May 15 10:56:54 2019
Article e7b8d1f8eee6fff37a8be0605354779a graph analyzed in batch mode at Wed May 15 10:56:54 2019
Article ce76cc3bd04705841317b36c2b583b57 graph analyzed in batch mode at Wed May 15 10:56:56 2019
Article c47ac37d8f61f38eb2a7a9b143c78ff5 graph analyzed in batch mode at Wed May 15 10:56:56 2019
Article 58c1e828fedc708b71b51e8ec378d853 graph analyzed in batch mode at Wed May 15 10:56:57 2019
Article facbe81e00799259257bd59a5924483a graph analyzed in batch mode at Wed May 15 10:56:57 2019
Article dbeda6a3c4ed4a980e3dd88d6744c936 graph analyzed in batch mode at Wed May 15 10:56:57 2019
Article d1ddaf49eebe65f146188115b935ed18 graph analyzed in batch mode at Wed May 15 10:56:57 2019
Article 82a647c9275d10637bda5579272291e8 graph analyzed in batch mode at Wed May 15 10:56:57 2019
Article 677a1649920789beb560f72b524f38f9 graph analyzed in batch mode at Wed May 15 10:56:58 2019
Article ccdb654b1c9a50556c7eb22dbece90b1 graph analyzed in batch mode at Wed May 15 10:57:00 2019
Article 1c3265ba9056287d4aba4e6095807312 graph analyzed in batch mode at Wed May 15 10:57:01 2019
Article 772f94e35156aad25bd3d44172208dc3 graph analyzed in batch mode at Wed May 15 10:57:01 2019
Article c97e4904f1c814dfdb96abd6df0cb169 graph analyzed in batch mode at Wed May 15 10:57:02 2019
Article cd24e7102d089fc934156c46444514b9 graph analyzed in batch mode at Wed May 15 10:57:03 2019
Article 578e1609f9afe550f803a2c56927774b graph analyzed in batch mode at Wed May 15 10:57:03 2019
Article 152a825215b36a74ee13f7693d115634 graph analyzed in batch mode at Wed May 15 10:57:03 2019
Article 9955844c7439d68853d0234d02da1334 graph analyzed in batch mode at Wed May 15 10:57:03 2019
Article 628dfb1631d0321ef7fbcf18c5326dd0 graph analyzed in batch mode at Wed May 15 10:57:04 2019
Article 754ead238ae5065b40cfb8dae98d290f graph analyzed in batch mode at Wed May 15 10:57:04 2019
Article 659f005047fb57c1c859fde3a2f24693 graph analyzed in batch mode at Wed May 15 10:57:05 2019
Article b0d87d23e2dd489c5f4561bdbe81c1a7 graph analyzed in batch mode at Wed May 15 10:57:05 2019
Article bd9cf632820587fb0901bad5d0e6a227 graph analyzed in batch mode at Wed May 15 10:57:05 2019
Article c9d228f9831c36a45bfc55498d3fbbc4 graph analyzed in batch mode at Wed May 15 10:57:06 2019
Article f231677e9cc5a14a1295bbea9f42dd83 graph analyzed in batch mode at Wed May 15 10:57:06 2019
Article ff99a66ce8bf985e06d62a5026f12a7f graph analyzed in batch mode at Wed May 15 10:57:06 2019
Article 518f41d39a977fa60fc2c641707cf2d0 graph analyzed in batch mode at Wed May 15 10:57:08 2019
Article ded0ce8bd1e241f8dff62f5f05e1a398 graph analyzed in batch mode at Wed May 15 10:57:08 2019
Article b157d1f4a61912b76495c56657dd59de graph analyzed in batch mode at Wed May 15 10:57:08 2019
Article 57ec32ee1015cd2033bc094dd8a92d60 graph analyzed in batch mode at Wed May 15 10:57:10 2019
Article 6e7d5b0717955745b47cddbccc5e3e03 graph analyzed in batch mode at Wed May 15 10:57:10 2019
Article 84228f562e89f394c26177e7302428c6 graph analyzed in batch mode at Wed May 15 10:57:10 2019
Article 43acf8a3d2875bdb243d28c11251be8a graph analyzed in batch mode at Wed May 15 10:57:10 2019
Article acbc6811a557b46c059b415d7d094e65 graph analyzed in batch mode at Wed May 15 10:57:10 2019
Article 09c03e2e2ceea5441fe763a394381dd3 graph analyzed in batch mode at Wed May 15 10:57:10 2019
Article 29f7f2eea6776fb7970784a9d596f4ea graph analyzed in batch mode at Wed May 15 10:57:11 2019
Article a679ca4e857aaef2dc5a041870731836 graph analyzed in batch mode at Wed May 15 10:57:11 2019
Article bc9ad4176ce33906002b5a6ae00aa182 graph analyzed in batch mode at Wed May 15 10:57:11 2019
Article b1eedea0e43b5537a0af2c632f3e9fc4 graph analyzed in batch mode at Wed May 15 10:57:11 2019
Article cc06cf6696606546c540a4e1344fcadd graph analyzed in batch mode at Wed May 15 10:57:11 2019
Article d6a04d838a00d9e971ac15b522b4a69d graph analyzed in batch mode at Wed May 15 10:57:11 2019
Article c712d6ed1418d19b6baff42a2aed46ce graph analyzed in batch mode at Wed May 15 10:57:11 2019
Article dd05e5e4e2ba2ffb3bf19f78932ae274 graph analyzed in batch mode at Wed May 15 10:57:12 2019
Article cc4b091af70cfc4dff33703a55bb73b1 graph analyzed in batch mode at Wed May 15 10:57:12 2019
Article fd2fd669d16bd057f04c95525be4ac08 graph analyzed in batch mode at Wed May 15 10:57:12 2019
Article f40acc75b1aa545e682ce94ee3a85288 graph analyzed in batch mode at Wed May 15 10:57:12 2019
Article e8817941087612d46ab6278afd86f0c1 graph analyzed in batch mode at Wed May 15 10:57:12 2019
Article f157d49ae82a95501debecad10efb225 graph analyzed in batch mode at Wed May 15 10:57:12 2019
Article 12cd6443700490b6d46de4548903c458 graph analyzed in batch mode at Wed May 15 10:57:12 2019
Article d9f12ab3446826ffcaa02a34e12d3b0b graph analyzed in batch mode at Wed May 15 10:57:13 2019
Article 915e7e930504aa276191bdcb53e6c9fe graph analyzed in batch mode at Wed May 15 10:57:13 2019
Article 002f6018a6503132b8daed5cb8e3cd6d graph analyzed in batch mode at Wed May 15 10:57:13 2019
Article 582658f790a3191d5e9c389f0e4d37e6 graph analyzed in batch mode at Wed May 15 10:57:14 2019
Article 5d535e5f70afd5d7ae8f9ba7996869d0 graph analyzed in batch mode at Wed May 15 10:57:14 2019
Article 0901ce2f750157b9eee899989d8817e6 graph analyzed in batch mode at Wed May 15 10:57:14 2019
Article 8ecac1d0b3f5e2af12dbb889635d8145 graph analyzed in batch mode at Wed May 15 10:57:14 2019
Article 97c88c0850903a43036829568b363ad2 graph analyzed in batch mode at Wed May 15 10:57:14 2019
Article f5ebacd9e5992b4f1d92daf46f055fc0 graph analyzed in batch mode at Wed May 15 10:57:15 2019
Article 853ae183aa0e09ef539c4e69361545eb graph analyzed in batch mode at Wed May 15 10:57:15 2019
Article 27774df8c4996332879c2b75c818a745 graph analyzed in batch mode at Wed May 15 10:57:15 2019
Article 770142651fc9c30a65f5b067fcbd2b96 graph analyzed in batch mode at Wed May 15 10:57:15 2019
Article 7033b6e991a0ae5bdc3f44bff2357d07 graph analyzed in batch mode at Wed May 15 10:57:15 2019
Article 5e20bafe746995b23e5a9dbc48521735 graph analyzed in batch mode at Wed May 15 10:57:15 2019
Article 2c02faef3c30bb1238488f200b8754ed graph analyzed in batch mode at Wed May 15 10:57:16 2019
Article 77b72520d4fc773edce0abe8f9c9dc70 graph analyzed in batch mode at Wed May 15 10:57:16 2019
Article fa047dfafe09ab1755382bbce4f4b594 graph analyzed in batch mode at Wed May 15 10:57:16 2019
Article 749233ad2db3db2ea0523425b63d71c6 graph analyzed in batch mode at Wed May 15 10:57:16 2019
Article 9939487c36bf1ab61387c8ce408d627c graph analyzed in batch mode at Wed May 15 10:57:16 2019
Article ae064730cd459a090683b028576acce3 graph analyzed in batch mode at Wed May 15 10:57:16 2019
Article 76182d4339b5d11554d18743f14e929d graph analyzed in batch mode at Wed May 15 10:57:16 2019
Article 985e8e96ea2cd8aa429fc373e51de2c3 graph analyzed in batch mode at Wed May 15 10:57:16 2019
Article 3518a9e6269cc0efce0308e98016b55b graph analyzed in batch mode at Wed May 15 10:57:17 2019
Article a5cda6e2daca77a6b321cb9eeb7b2dd3 graph analyzed in batch mode at Wed May 15 10:57:17 2019
Article 66d034b159bbb3cc1d2625f79bc36968 graph analyzed in batch mode at Wed May 15 10:57:17 2019
Article 3d999e7e2bdec545b9d998d2830314fc graph analyzed in batch mode at Wed May 15 10:57:17 2019
Article 1804ec05dc48a91f06222488c3eb54cd graph analyzed in batch mode at Wed May 15 10:57:17 2019
Article 44cf8de2e6e4d188ba5bda01bc2bef79 graph analyzed in batch mode at Wed May 15 10:57:17 2019
Article f4e3d8cb9c9bd9d227cca8ea0a6e337a graph analyzed in batch mode at Wed May 15 10:57:17 2019
Article 15c6f7870109fd107b24f125e7781976 graph analyzed in batch mode at Wed May 15 10:57:18 2019
Article b104b5645e05082bb635ce93f3a7c204 graph analyzed in batch mode at Wed May 15 10:57:18 2019
Article db791e86debc6ce4a27313673cded5a9 graph analyzed in batch mode at Wed May 15 10:57:18 2019
Article 62998c86be484d571e9871a1f8ca27b7 graph analyzed in batch mode at Wed May 15 10:57:18 2019
Article aae79d0699b8e6374373109dddeda58b graph analyzed in batch mode at Wed May 15 10:57:18 2019
Article 624ffcdfbd14b44986762a7cc70a8a82 graph analyzed in batch mode at Wed May 15 10:57:18 2019
Article 98eaeb8c79a8e0333bd741a6d25d1ad7 graph analyzed in batch mode at Wed May 15 10:57:19 2019
Article 4feb40e6a58f0c362d4eb4a7e82c96e8 graph analyzed in batch mode at Wed May 15 10:57:19 2019
Article a15b89bfc84a3df9d58be41ae6455d64 graph analyzed in batch mode at Wed May 15 10:57:19 2019
Article 71788693bd170227036f33198db077d2 graph analyzed in batch mode at Wed May 15 10:57:19 2019
Article 1f748b9aee3528ea8be8fa02af94708d graph analyzed in batch mode at Wed May 15 10:57:19 2019
Article 733617dde03c5b11dd1452f478e6a98e graph analyzed in batch mode at Wed May 15 10:57:19 2019
Article 31976521c1dc4a6cfe958326488e6f9c graph analyzed in batch mode at Wed May 15 10:57:19 2019
Article bd697fa21d9f52120a881712ac7ee24d graph analyzed in batch mode at Wed May 15 10:57:19 2019
Article ebb27c37db3959b8145adbb3050be5c9 graph analyzed in batch mode at Wed May 15 10:57:20 2019
Article 1fe75f55ef0cdbbd9b12c8b42184e437 graph analyzed in batch mode at Wed May 15 10:57:20 2019
Article ac0b9a8a7a8596edfcbb2a30d5099b66 graph analyzed in batch mode at Wed May 15 10:57:20 2019
Article ecf64bde1fb8ec669593d5131f2f704e graph analyzed in batch mode at Wed May 15 10:57:20 2019
Article d903e884ff25d5f0865c1c4c051a13b2 graph analyzed in batch mode at Wed May 15 10:57:20 2019
Article 41fce21e130a5fd3dd1baef9b847017a graph analyzed in batch mode at Wed May 15 10:57:20 2019
Article 2d3ec32bc535777022720555070690ef graph analyzed in batch mode at Wed May 15 10:57:20 2019
Article a2e713e72eea803d92af5ccd3ce7875d graph analyzed in batch mode at Wed May 15 10:57:20 2019
Article 902a934011ff6abc895dff88a8432e2e graph analyzed in batch mode at Wed May 15 10:57:21 2019
Article cb9152fedab3c323ad6aeed653503557 graph analyzed in batch mode at Wed May 15 10:57:21 2019
Article e0c1c222d463f0c913aadda27488b9e7 graph analyzed in batch mode at Wed May 15 10:57:21 2019
Article c60c7117de323953820628c0f44d4f48 graph analyzed in batch mode at Wed May 15 10:57:21 2019
Article 133afb03f98fca0a5c9462f0a6242d64 graph analyzed in batch mode at Wed May 15 10:57:21 2019
Article 89485e8a6cdefdc94c68ad3d9aaf0511 graph analyzed in batch mode at Wed May 15 10:57:21 2019
Article 0e8eb8c7f7617c76d7e969c893ad3337 graph analyzed in batch mode at Wed May 15 10:57:21 2019
Article fb1e8eef962b6f09008f7693472a564d graph analyzed in batch mode at Wed May 15 10:57:22 2019
Article 42bf0952cff38aca572a19ce7473148c graph analyzed in batch mode at Wed May 15 10:57:22 2019
Article 7fac3d7d6b1f0f4d0c4d6a7fb7bca833 graph analyzed in batch mode at Wed May 15 10:57:22 2019
Article 21743d71cdc4c1afefaf4c536d9753e1 graph analyzed in batch mode at Wed May 15 10:57:22 2019
Article c49d41ebb0745164c6b47228a45f2333 graph analyzed in batch mode at Wed May 15 10:57:22 2019
Article ee3018d4253ec35962005621d7c13508 graph analyzed in batch mode at Wed May 15 10:57:22 2019
Article c2af9c1c83b9b7674d1542e69c510643 graph analyzed in batch mode at Wed May 15 10:57:22 2019
Article be84e6e742599fcbaa8ff4017981b82a graph analyzed in batch mode at Wed May 15 10:57:23 2019
Article 204a5af75b41f4b3311060ad1e23814c graph analyzed in batch mode at Wed May 15 10:57:23 2019
Article 6c88e03c534842e38de1a2f7ea871968 graph analyzed in batch mode at Wed May 15 10:57:23 2019
Article eeb4402c25f491240d6b0295d54776d6 graph analyzed in batch mode at Wed May 15 10:57:23 2019
Article 58fbac6392e0b6a17494588dd4a877bc graph analyzed in batch mode at Wed May 15 10:57:23 2019
Article 197969c986276b5f24972cfe588553fa graph analyzed in batch mode at Wed May 15 10:57:23 2019
Article c5503ff4b142c909725bb0bcc8e50548 graph analyzed in batch mode at Wed May 15 10:57:23 2019
Article dcd0fdccd42c57fd3634c0e382bf9cbd graph analyzed in batch mode at Wed May 15 10:57:24 2019
Article 11e023ba1528d597c5ddf9cc30441347 graph analyzed in batch mode at Wed May 15 10:57:24 2019
Article 55cd011ec7609b390b4c0860c3cab06c graph analyzed in batch mode at Wed May 15 10:57:24 2019
Article d0279bc04e496357aff0627077608e98 graph analyzed in batch mode at Wed May 15 10:57:24 2019
Article 6798afbf66a727c22d5c0f2d080416e9 graph analyzed in batch mode at Wed May 15 10:57:24 2019
Article b03e1f893525561cd1db52b3632deeea graph analyzed in batch mode at Wed May 15 10:57:24 2019
Article efe142327d29e54883263aa714dc0fd6 graph analyzed in batch mode at Wed May 15 10:57:24 2019
Article f8eeb005361c461c143c7b0cea68db3f graph analyzed in batch mode at Wed May 15 10:57:25 2019
Article 519b22ed4827095197c84bcb1c260d2a graph analyzed in batch mode at Wed May 15 10:57:25 2019
Article 5f0060e36cdf8d4fd0352f3e69087993 graph analyzed in batch mode at Wed May 15 10:57:25 2019
Article fbbadcb1a8b35494d1c1e66f9e4740de graph analyzed in batch mode at Wed May 15 10:57:25 2019
Article 94b9bbd266910fd4dd8a0b9f7c9ae9fd graph analyzed in batch mode at Wed May 15 10:57:25 2019
Article 341d17ee567401470d7e297fa6bf0624 graph analyzed in batch mode at Wed May 15 10:57:25 2019
Article 7942c71397c675b81a724bf9be5ed24e graph analyzed in batch mode at Wed May 15 10:57:25 2019
Article d3eb7faf4fa5d3efb3ce012cdd9a6b77 graph analyzed in batch mode at Wed May 15 10:57:26 2019
Article cb1b3a62b6fd5c2adb4a75d67ad3e920 graph analyzed in batch mode at Wed May 15 10:57:26 2019
Article 00f8b5f5ff2bed3b682245b79c874126 graph analyzed in batch mode at Wed May 15 10:57:26 2019
Article 9b09fa870478f2696f334451df918944 graph analyzed in batch mode at Wed May 15 10:57:26 2019
Article 04b36d0ba468184ca4289ab308efd3a6 graph analyzed in batch mode at Wed May 15 10:57:26 2019
Article d70fe12c5e5c4e5a06f4a01d5bf3cb77 graph analyzed in batch mode at Wed May 15 10:57:26 2019
Article af2d3110e1a4bb2546a0a6719fe8909f graph analyzed in batch mode at Wed May 15 10:57:26 2019
Article bfbea5796f5b8f1ed2ffa06852301603 graph analyzed in batch mode at Wed May 15 10:57:27 2019
Article dd659a533bfff319030f2df0ee13366d graph analyzed in batch mode at Wed May 15 10:57:27 2019
Article 2b55b70800bc9546f243918f087160f4 graph analyzed in batch mode at Wed May 15 10:57:27 2019
Article 9ce8725054ee7ac70e5f4aa7b3fd1c7d graph analyzed in batch mode at Wed May 15 10:57:27 2019
Article d8e810b1365d5cf493164beffb9bc8d3 graph analyzed in batch mode at Wed May 15 10:57:27 2019
Article 66e1d3a922025b7a45b772b4b479c537 graph analyzed in batch mode at Wed May 15 10:57:27 2019
Article 34fa1b902bbd8f0b403752bb66339378 graph analyzed in batch mode at Wed May 15 10:57:28 2019
Article aca2c3c5828ea7f177c32800d23d0468 graph analyzed in batch mode at Wed May 15 10:57:28 2019
Article 0020c91260978b544168eddf3d7ee36d graph analyzed in batch mode at Wed May 15 10:57:28 2019
Article d041e786a9589266b1f3147ff7423294 graph analyzed in batch mode at Wed May 15 10:57:28 2019
Article 728cf49b564611a55f57326f5b0b0ee9 graph analyzed in batch mode at Wed May 15 10:57:28 2019
Article a3cdc2e45230d3184c4d78a759aa410b graph analyzed in batch mode at Wed May 15 10:57:28 2019
Article 137218a0681d8dbae547d011f4897b25 graph analyzed in batch mode at Wed May 15 10:57:28 2019
Article 9a854b42ba04e231245d147f51de2ad2 graph analyzed in batch mode at Wed May 15 10:57:29 2019
Article 641de6038aaa1a34e1a38cefd37f1b17 graph analyzed in batch mode at Wed May 15 10:57:29 2019
Article 47b0fb3f15a4b780f835eac3e5e853f1 graph analyzed in batch mode at Wed May 15 10:57:29 2019
Article 5b1bfdc9a808b405786c49b6e29c3646 graph analyzed in batch mode at Wed May 15 10:57:29 2019
Article b3217c976e6dd18ec7007d3a7bb23b93 graph analyzed in batch mode at Wed May 15 10:57:29 2019
Article b9cee4177cbe4ad35162116aa11ce757 graph analyzed in batch mode at Wed May 15 10:57:29 2019
Article 1202f0705c1ddc9cea253ea221a30a03 graph analyzed in batch mode at Wed May 15 10:57:30 2019
Article 39050d7aa795bb49091f313cea125d4e graph analyzed in batch mode at Wed May 15 10:57:30 2019
Article 1139dbfe42a3d42b18724791791d4d4d graph analyzed in batch mode at Wed May 15 10:57:30 2019
Article 7d99aae1ee2ff9c9f691609279b3a04c graph analyzed in batch mode at Wed May 15 10:57:30 2019
Article 4591976f886acae1cd69493f66f59952 graph analyzed in batch mode at Wed May 15 10:57:30 2019
Article 9aeab81c06f96986d9cb0e70fb80439f graph analyzed in batch mode at Wed May 15 10:57:30 2019
Article e5fdf4b3135344886659b4406e8ece0a graph analyzed in batch mode at Wed May 15 10:57:30 2019
Article a99a12ef60506767a919f5867ccb8b09 graph analyzed in batch mode at Wed May 15 10:57:30 2019
Article 771ba3d2ac24e248782e69ac82c12eff graph analyzed in batch mode at Wed May 15 10:57:31 2019
Article 8ea1db820ff5579a4ff08cadcf85ab73 graph analyzed in batch mode at Wed May 15 10:57:31 2019
Article 77cdcf361ca0ca07d8a629120e1d2627 graph analyzed in batch mode at Wed May 15 10:57:31 2019
Article 7ab57299dc25045bca63b751939e17ab graph analyzed in batch mode at Wed May 15 10:57:31 2019
Article c3e4db014bab8ef301008c84ecf107de graph analyzed in batch mode at Wed May 15 10:57:31 2019
Article 6a50d2ea8a486f55380aeafef6fcaed6 graph analyzed in batch mode at Wed May 15 10:57:31 2019
Article c4bea2cf9b7f39685093424059aac212 graph analyzed in batch mode at Wed May 15 10:57:32 2019
Article 2c9f2291038c99e3d9587ec095ba0d89 graph analyzed in batch mode at Wed May 15 10:57:32 2019
Article 6a1178dfe18202d39d6eeb4fbf43f281 graph analyzed in batch mode at Wed May 15 10:57:32 2019
Article ffd593a8390883f5d64418de0f84c51b graph analyzed in batch mode at Wed May 15 10:57:32 2019
Article e8a16a74f49ad43c73fb3641ba85fbec graph analyzed in batch mode at Wed May 15 10:57:32 2019
Article 6bf4a2ff350afe436dba94e8d890f12f graph analyzed in batch mode at Wed May 15 10:57:32 2019
Article 1d66facec86dcfe65d13e59e04c56087 graph analyzed in batch mode at Wed May 15 10:57:33 2019
Article 04b7e1a9dd6e87d7d88ca4963ccaab4d graph analyzed in batch mode at Wed May 15 10:57:33 2019
Article 5e51b5fd90d8defc889a310b06cb70af graph analyzed in batch mode at Wed May 15 10:57:33 2019
Article 83cc65a1b5a1d757882ecd8081ea6c55 graph analyzed in batch mode at Wed May 15 10:57:33 2019
Article 00925b36f63586ca1a8acd579e2e8701 graph analyzed in batch mode at Wed May 15 10:57:33 2019
Article 9461e43b33e42987621ec67a8e677af9 graph analyzed in batch mode at Wed May 15 10:57:33 2019
Article cb075a1485090d6609384049a5dcd84e graph analyzed in batch mode at Wed May 15 10:57:34 2019
Article 7e27606fc6c8f229c021aefc5b0fc48e graph analyzed in batch mode at Wed May 15 10:57:34 2019
Article adde69e18ac2cf838e74f225487c5357 graph analyzed in batch mode at Wed May 15 10:57:34 2019
Article 1978d7b91ba40a5ec775045fb94bc185 graph analyzed in batch mode at Wed May 15 10:57:34 2019
Article a5400ab291aca36b7b53d47cb8c66b6b graph analyzed in batch mode at Wed May 15 10:57:34 2019
Article 64e28f762d952d944ca975b9a59290f1 graph analyzed in batch mode at Wed May 15 10:57:34 2019
Article 10ea2af7c1299c82053931e4a36f2d8c graph analyzed in batch mode at Wed May 15 10:57:34 2019
Article 9d87b9d7aa64c64cb3bf67b6b3b0eb67 graph analyzed in batch mode at Wed May 15 10:57:35 2019
Article c534a5aae83c66048c57d3b0bdec174f graph analyzed in batch mode at Wed May 15 10:57:35 2019
Article a945b3fe4c5a195c57053ab558d870d9 graph analyzed in batch mode at Wed May 15 10:57:35 2019
Article 8fe2ed952007ecbb847f73da97432c5b graph analyzed in batch mode at Wed May 15 10:57:35 2019
Article 586a82894acc9cae7e857046586c4a9a graph analyzed in batch mode at Wed May 15 10:57:35 2019
Article 4b9ffcd1c47c7d63046935b09fd89dd6 graph analyzed in batch mode at Wed May 15 10:57:35 2019
Article 3988f0cdb2257c92acfc6c72f7237809 graph analyzed in batch mode at Wed May 15 10:57:36 2019
Article d92fd21099cd80267f2f1c4f65b5f148 graph analyzed in batch mode at Wed May 15 10:57:36 2019
Article d22c8bfa24e2ce4146806e26c2cc9aa0 graph analyzed in batch mode at Wed May 15 10:57:36 2019
Article 53e9aab41360880e20158fabf9fd6da4 graph analyzed in batch mode at Wed May 15 10:57:36 2019
Article 073639afcdeaa98591d65b7072fb47aa graph analyzed in batch mode at Wed May 15 10:57:36 2019
Article 6c0ab80d93af396b2046a8662c8eb27d graph analyzed in batch mode at Wed May 15 10:57:36 2019
Article 70f2fa88f564ec0d746f05c87aa9cd2b graph analyzed in batch mode at Wed May 15 10:57:36 2019
Article 26e1c786a6e75f455781c5adce26c5f3 graph analyzed in batch mode at Wed May 15 10:57:37 2019
Article 037ec67aa70b55c76c4e6e42ebb6b6fa graph analyzed in batch mode at Wed May 15 10:57:37 2019
Article 2aa7f632b216998732b79912abb3a7eb graph analyzed in batch mode at Wed May 15 10:57:37 2019
Article be9a47287c8b50853a154a1eaec772af graph analyzed in batch mode at Wed May 15 10:57:37 2019
Article a96c8e7bcbf0eef0e40f493626053436 graph analyzed in batch mode at Wed May 15 10:57:37 2019
Article dee9f91ccbc84bd1483deaa858d68b36 graph analyzed in batch mode at Wed May 15 10:57:37 2019
Article c68010078812fd9c74016643de80f177 graph analyzed in batch mode at Wed May 15 10:57:37 2019
Article e6dea355e0e511e254316138d37e8fa2 graph analyzed in batch mode at Wed May 15 10:57:38 2019
Article e511ae4365378b68557b0763c227f451 graph analyzed in batch mode at Wed May 15 10:57:38 2019
Article b3ad8d08d7a9dc8b48f32ad8b5a5d745 graph analyzed in batch mode at Wed May 15 10:57:38 2019
Article 0ee30af298730650d151188a52ec16f2 graph analyzed in batch mode at Wed May 15 10:57:38 2019
Article 61f1fd10d527689ded2c20a1b6294f77 graph analyzed in batch mode at Wed May 15 10:57:38 2019
Article 0b352d8d6847a90c82384f619e3b9510 graph analyzed in batch mode at Wed May 15 10:57:38 2019
Article 8d039aae4c3d6de907e24871c3a056c1 graph analyzed in batch mode at Wed May 15 10:57:38 2019
Article 48735451b7418a82a490c424fa86f500 graph analyzed in batch mode at Wed May 15 10:57:39 2019
Article 49fb80284d62fcd2f75fe6dfb7b2b259 graph analyzed in batch mode at Wed May 15 10:57:39 2019
Article d074d153c5e70332426de2c4a0dd0d61 graph analyzed in batch mode at Wed May 15 10:57:39 2019
Article 80a31a9b8bf3d2aef909e34a8f62846b graph analyzed in batch mode at Wed May 15 10:57:39 2019
Article 3f860531a5e0f37f4d49a9a00ecf425d graph analyzed in batch mode at Wed May 15 10:57:39 2019
Article 808d37d92a847e7990ec9058231081b1 graph analyzed in batch mode at Wed May 15 10:57:39 2019
Article 7ab3c282afdf44aa76bda415e92c141c graph analyzed in batch mode at Wed May 15 10:57:40 2019
Article 10e4802e55eecf1c2d11ed7e93a19002 graph analyzed in batch mode at Wed May 15 10:57:40 2019
Article 6b5191fddae272904c86466370093bbe graph analyzed in batch mode at Wed May 15 10:57:40 2019
Article 281a61bd2678fec9cfd09293c8ac1036 graph analyzed in batch mode at Wed May 15 10:57:40 2019
Article ae730c689cc8736859072749fd9387bc graph analyzed in batch mode at Wed May 15 10:57:40 2019
Article 1bd2688385d9c744d0640a83f291960d graph analyzed in batch mode at Wed May 15 10:57:40 2019
Article cf88742acabdad91d739a36afc1d0e64 graph analyzed in batch mode at Wed May 15 10:57:41 2019
Article 255e020d7749913457156724ed66e1d3 graph analyzed in batch mode at Wed May 15 10:57:41 2019
Article 421312e52594d4e20db8c46ff8a84e91 graph analyzed in batch mode at Wed May 15 10:57:41 2019
Article 1e2413a37e9a20bb02f79743afd2f556 graph analyzed in batch mode at Wed May 15 10:57:41 2019
Article 896e31bae2a597252192f37288d17004 graph analyzed in batch mode at Wed May 15 10:57:42 2019
Article b3259ea3748939a85e9a058d3b494c5d graph analyzed in batch mode at Wed May 15 10:57:42 2019
Article d3b455e3b6aeb74fda3b3afd76c508f2 graph analyzed in batch mode at Wed May 15 10:57:42 2019
Article 845cb6b8367b473b17b561c626bb7dcd graph analyzed in batch mode at Wed May 15 10:57:42 2019
Article 393881bfbd2b6610cfcbe02a449caa2e graph analyzed in batch mode at Wed May 15 10:57:42 2019
Article 8a11670332e64e12dc244ebab49db944 graph analyzed in batch mode at Wed May 15 10:57:42 2019
Article 43975b4dd9db1f098aaa3f34a51c36ff graph analyzed in batch mode at Wed May 15 10:57:43 2019
Article 8bd4adb6470cfbad02fdc7f4219119fc graph analyzed in batch mode at Wed May 15 10:57:43 2019
Article e983e1ad39951ae767d138ac5fd2ad73 graph analyzed in batch mode at Wed May 15 10:57:43 2019
Article d3083d7b9d982077de528793b2ed7af8 graph analyzed in batch mode at Wed May 15 10:57:43 2019
Article 8ae8a199696d828973040b6739fd2b9c graph analyzed in batch mode at Wed May 15 10:57:43 2019
Article 42db9fbacf30c3ee191b95a3a238e6ac graph analyzed in batch mode at Wed May 15 10:57:43 2019
Article a36ccefd753b1bae018ea3319fc5ff22 graph analyzed in batch mode at Wed May 15 10:57:43 2019
Article ad8129db97be412f1eddfbdcae24f4ca graph analyzed in batch mode at Wed May 15 10:57:44 2019
Article 4391364a53771d2c4291586a5baaf8f0 graph analyzed in batch mode at Wed May 15 10:57:44 2019
Article 229ddf3f5f1fef4807dcb882be602ef7 graph analyzed in batch mode at Wed May 15 10:57:44 2019
Article 2bdccc9e58196b82965cd79498388617 graph analyzed in batch mode at Wed May 15 10:57:44 2019
Article 189ffc9ad3bb8d43f5e9a027f1536c83 graph analyzed in batch mode at Wed May 15 10:57:44 2019
Article 257bc8aea2da5be608587a4800cb8573 graph analyzed in batch mode at Wed May 15 10:57:44 2019
Article 2669497b06e8d73c1218b4068b085986 graph analyzed in batch mode at Wed May 15 10:57:44 2019
Article 3f98f990bea03e41f6c34a5c890935a5 graph analyzed in batch mode at Wed May 15 10:57:44 2019
Article 343f2c413c3fe93f5b78e18129fddb56 graph analyzed in batch mode at Wed May 15 10:57:45 2019
Article a5ddc296096bf52bdab06a71f2c79abd graph analyzed in batch mode at Wed May 15 10:57:45 2019
Article 13f46fa6efab5d9c1cfdbc4a3422e416 graph analyzed in batch mode at Wed May 15 10:57:45 2019
Article bd81f6f3fafbc354937f9797516ce9bd graph analyzed in batch mode at Wed May 15 10:57:45 2019
Article 10761055638c3b9cd6c4bb0c248be94d graph analyzed in batch mode at Wed May 15 10:57:45 2019
Article a481f7ca4378722c567970f9e68a044e graph analyzed in batch mode at Wed May 15 10:57:45 2019
Article 44adad5d1a671de399bb4e472da05c79 graph analyzed in batch mode at Wed May 15 10:57:45 2019
Article 1c998e95dc083b23cc0da2417554b1df graph analyzed in batch mode at Wed May 15 10:57:46 2019
Article 0465d4336574bddbc41d772f48754148 graph analyzed in batch mode at Wed May 15 10:57:47 2019
Article 63632065c6e5ecc3b9a4c2c113cbaa16 graph analyzed in batch mode at Wed May 15 10:57:47 2019
Article 9f3cacf1d1746a803adb14e0c0814fda graph analyzed in batch mode at Wed May 15 10:57:47 2019
Article d39dae06191c7f547a1e60b26dfa547e graph analyzed in batch mode at Wed May 15 10:57:47 2019
Article 7307bb7cfc148fe76377ec5642b6a9ea graph analyzed in batch mode at Wed May 15 10:57:47 2019
Article cbdc47ddc19760f851717a223a69902f graph analyzed in batch mode at Wed May 15 10:57:47 2019
Article ef70e75e5961896c617b791806149b2e graph analyzed in batch mode at Wed May 15 10:57:48 2019
Article 02a940d2e83234087f6c0702e184050a graph analyzed in batch mode at Wed May 15 10:57:48 2019
Article 69337fca062dca47a488ec5a3c0108e2 graph analyzed in batch mode at Wed May 15 10:57:48 2019
Article e5f1f2630cfb7f310e6419a11d4d1f10 graph analyzed in batch mode at Wed May 15 10:57:48 2019
Article 23a75e1a6f050a9d7bc562f2a8d1610e graph analyzed in batch mode at Wed May 15 10:57:48 2019
Article 3536e58d4ebd10331c04cc0bcdc3737e graph analyzed in batch mode at Wed May 15 10:57:48 2019
Article f2b5c5dacba5dbe771e8fec083c41b6b graph analyzed in batch mode at Wed May 15 11:05:20 2019
Article aabb4c56a3e021bd4a8bd8c1ce006b43 graph analyzed in batch mode at Wed May 15 11:05:20 2019
Article 6b4b7c2dbac10134cb81d7bfe2a69228 graph analyzed in batch mode at Wed May 15 11:05:20 2019
Article bfb6a5b636f5817f5474dfda5b792558 graph analyzed in batch mode at Wed May 15 11:05:20 2019
Article 492b508ea5ad88c134f21928a44460ce graph analyzed in batch mode at Wed May 15 11:05:21 2019
Article ebca267f9e0abbcf1141f555a5e3a3eb graph analyzed in batch mode at Wed May 15 11:05:21 2019
Article 356abae498c408f10770265dc37ffb7c graph analyzed in batch mode at Wed May 15 11:05:22 2019
Article d317dc30a46b115d77b388762c0a112a graph analyzed in batch mode at Wed May 15 11:05:23 2019
Article cf4713bfbdc125990fdd4d41e71926f6 graph analyzed in batch mode at Wed May 15 11:05:24 2019
Article e86b2ff0784a8166623df93b4912e99a graph analyzed in batch mode at Wed May 15 11:05:24 2019
Article d6f16a5087bc41118870bb618c889b8e graph analyzed in batch mode at Wed May 15 11:05:24 2019
Article 16c85da5c033ad7371d8819c25a30a3e graph analyzed in batch mode at Wed May 15 11:05:24 2019
Article 6bd6768e76a1dd8340cfab1ec682fda2 graph analyzed in batch mode at Wed May 15 11:05:25 2019
Article 8bd97881b757e7dca17cf05ef7a230d0 graph analyzed in batch mode at Wed May 15 11:05:25 2019
Article c2d214c1256bbbe18db87cff241981fd graph analyzed in batch mode at Wed May 15 11:05:26 2019
Article bf44e33d08a721d803b8d2f81492d617 graph analyzed in batch mode at Wed May 15 11:05:26 2019
Article 40e5d1bcb40f2e461ab517e8b7c151bf graph analyzed in batch mode at Wed May 15 11:05:26 2019
Article 67530db05ae994d7c211e548098f9565 graph analyzed in batch mode at Wed May 15 11:05:27 2019
Article 42e0a0d3a7854bce2e5c04355cd00115 graph analyzed in batch mode at Wed May 15 11:05:27 2019
Article 84419625ac61b806f4f00ef05dc6e40d graph analyzed in batch mode at Wed May 15 11:05:28 2019
Article bfb6a5b636f5817f5474dfda5b792558 graph analyzed in batch mode at Wed May 15 11:05:28 2019
Article 3b0f75c08f111c0c6543c7ac3c077c0f graph analyzed in batch mode at Wed May 15 11:05:28 2019
Article bfb6a5b636f5817f5474dfda5b792558 graph analyzed in batch mode at Wed May 15 11:05:28 2019
Article c9a34078f6e53f4ea6076537b6b1aa51 graph analyzed in batch mode at Wed May 15 11:05:28 2019
Article 60b6e66ffdbdbb4ad85042046e183633 graph analyzed in batch mode at Wed May 15 11:05:28 2019
Article c9ba2cfed012f446d7bf1a3774854b9f graph analyzed in batch mode at Wed May 15 11:05:29 2019
Article a46ba80b992578dcc6168fc4523f4bed graph analyzed in batch mode at Wed May 15 11:05:29 2019
Article 24b13b4476046c2d348c8c8e1196a193 graph analyzed in batch mode at Wed May 15 11:05:29 2019
Article 6312f9511abd2af4d675adde59329e3d graph analyzed in batch mode at Wed May 15 11:05:30 2019
Article 75fc4598bf7bd59722e68671adf9a53d graph analyzed in batch mode at Wed May 15 11:05:30 2019
Article 0eb5ee41ac93960dd47731c0c5c9c896 graph analyzed in batch mode at Wed May 15 11:05:30 2019
Article dd1205074b6265de738fc11eff356edd graph analyzed in batch mode at Wed May 15 11:05:30 2019
Article c941cefe6f0df82a8099d8256a6e9d8d graph analyzed in batch mode at Wed May 15 11:05:31 2019
Article 15cd1b2d0fbf9003dbabedf63e4a2179 graph analyzed in batch mode at Wed May 15 11:05:31 2019
Article a15641a6e032566c07e9dfc3d05c5312 graph analyzed in batch mode at Wed May 15 11:05:31 2019
Article d54a1bbefb67dc3455dbcbf01612ff9f graph analyzed in batch mode at Wed May 15 11:05:32 2019
Article 5c2079406fc678967e1d5858e1397ffa graph analyzed in batch mode at Wed May 15 11:05:32 2019
Article e7b836f8d94a7aa9f0b177720f328b92 graph analyzed in batch mode at Wed May 15 11:05:32 2019
Article d29c5ac53e7ffb23926a96538bdda920 graph analyzed in batch mode at Wed May 15 11:05:32 2019
Article 1ddee65acfeceb0008164f7bbb9f7220 graph analyzed in batch mode at Wed May 15 11:05:33 2019
Article d6b93bd804d2feb42a681ff7c582360e graph analyzed in batch mode at Wed May 15 11:05:33 2019
Article b5079c4c993f664d0df08fcef714092c graph analyzed in batch mode at Wed May 15 11:05:33 2019
Article 549efe9817632cd214a90fb3bf5346c2 graph analyzed in batch mode at Wed May 15 11:05:33 2019
Article 8978e1681e0ca784f6a2be3adf05e577 graph analyzed in batch mode at Wed May 15 11:05:34 2019
Article a6c742a7f77d026647e1dd11b30fdd72 graph analyzed in batch mode at Wed May 15 11:05:34 2019
Article 015ec33588825b208f22fe4d5d728a1e graph analyzed in batch mode at Wed May 15 11:05:34 2019
Article cc8f39cf636e35cbfe4a82a653b5bf38 graph analyzed in batch mode at Wed May 15 11:05:34 2019
Article 77d815a672373298bd7e2f4db25fa361 graph analyzed in batch mode at Wed May 15 11:05:34 2019
Article 8b2336294ebba120bcadde81edea26a2 graph analyzed in batch mode at Wed May 15 11:05:35 2019
Article edcf82fc7539170a4fadd802c0b91143 graph analyzed in batch mode at Wed May 15 11:05:35 2019
Article b01102389841af8477bfc7f7eff85a04 graph analyzed in batch mode at Wed May 15 11:05:35 2019
Article 8885d79d0d0b322c856b0a7609d9356b graph analyzed in batch mode at Wed May 15 11:05:35 2019
Article 0301e3e022c0a2efdf7699b5e3355245 graph analyzed in batch mode at Wed May 15 11:05:36 2019
Article db193c5360cc75a1c60d2860a1b40a36 graph analyzed in batch mode at Wed May 15 11:05:37 2019
Article 58d10dd3587ac58c5e26a4d1d6c7505c graph analyzed in batch mode at Wed May 15 11:05:37 2019
Article df143746d31306f5f1e422411dc71572 graph analyzed in batch mode at Wed May 15 11:05:37 2019
Article b9928513659f1eedc67d30437c358e97 graph analyzed in batch mode at Wed May 15 11:05:37 2019
Article eac8c186ea4a3f815d3c326a4f1e394b graph analyzed in batch mode at Wed May 15 11:05:37 2019
Article 9ffa3c78bb829e6161b1dc0787f76a4c graph analyzed in batch mode at Wed May 15 11:05:38 2019
Article 6eadaba7deb68ee734432e19071b3571 graph analyzed in batch mode at Wed May 15 11:05:38 2019
Article 4804923c7191444d22267ea3944edcca graph analyzed in batch mode at Wed May 15 11:05:38 2019
Article 779b3f72033f02fa18781b99f0885cbb graph analyzed in batch mode at Wed May 15 11:05:38 2019
Article b85e4e68b142749ff28b2da2028b8ce9 graph analyzed in batch mode at Wed May 15 11:05:38 2019
Article 917ffbebc0b0b0b6ae7a1f4212dc004b graph analyzed in batch mode at Wed May 15 11:05:38 2019
Article 4804923c7191444d22267ea3944edcca graph analyzed in batch mode at Wed May 15 11:05:39 2019
Article 5ccc09a4c055d8e9834e38829f65c591 graph analyzed in batch mode at Wed May 15 11:05:39 2019
Article bd4c246559a0194d3f9b3d12480184c6 graph analyzed in batch mode at Wed May 15 11:05:40 2019
Article e4df82e572e1b8482b86575bee0ebb0a graph analyzed in batch mode at Wed May 15 11:05:40 2019
Article 48299bf7c74dc3a2b6c7576a8d095a60 graph analyzed in batch mode at Wed May 15 11:05:40 2019
Article 68ec7a0d9fdf49b5e6cc7d58ba9c769f graph analyzed in batch mode at Wed May 15 11:05:40 2019
Article ff9c7346b142aac265fcefa9ecac28be graph analyzed in batch mode at Wed May 15 11:05:40 2019
Article cf9187ffa2d2bc777bc79cb743e3b3a9 graph analyzed in batch mode at Wed May 15 11:05:42 2019
Article 10af63772b2b9d10cb707a64cfc31d1f graph analyzed in batch mode at Wed May 15 11:05:42 2019
Article ff9c7346b142aac265fcefa9ecac28be graph analyzed in batch mode at Wed May 15 11:05:42 2019
Article 40517e4cdc22489083e622553b72769a graph analyzed in batch mode at Wed May 15 11:05:43 2019
Article b31ab5803adff80c40c853e017045498 graph analyzed in batch mode at Wed May 15 11:05:43 2019
Article 6bb00d042a0b6ea73f96c133d3018396 graph analyzed in batch mode at Wed May 15 11:05:43 2019
Article 2cb1827e6ea5ab299dd6f7bd32cbd5d0 graph analyzed in batch mode at Wed May 15 11:05:43 2019
Article abd86520243e5bbb0b666cb1aa5e42bc graph analyzed in batch mode at Wed May 15 11:05:43 2019
Article 5337ba9ddf1a908786758d740bd4546f graph analyzed in batch mode at Wed May 15 11:05:43 2019
Article f2b5c5dacba5dbe771e8fec083c41b6b graph analyzed in batch mode at Wed May 15 11:16:48 2019
Article f2b5c5dacba5dbe771e8fec083c41b6b graph analyzed in batch mode at Wed May 15 11:17:31 2019
Article aabb4c56a3e021bd4a8bd8c1ce006b43 graph analyzed in batch mode at Wed May 15 11:17:31 2019
Article 6b4b7c2dbac10134cb81d7bfe2a69228 graph analyzed in batch mode at Wed May 15 11:17:32 2019
Article bfb6a5b636f5817f5474dfda5b792558 graph analyzed in batch mode at Wed May 15 11:17:32 2019
Article 492b508ea5ad88c134f21928a44460ce graph analyzed in batch mode at Wed May 15 11:17:32 2019
Article ebca267f9e0abbcf1141f555a5e3a3eb graph analyzed in batch mode at Wed May 15 11:17:32 2019
Article 356abae498c408f10770265dc37ffb7c graph analyzed in batch mode at Wed May 15 11:17:33 2019
Article d317dc30a46b115d77b388762c0a112a graph analyzed in batch mode at Wed May 15 11:17:33 2019
Article cf4713bfbdc125990fdd4d41e71926f6 graph analyzed in batch mode at Wed May 15 11:17:34 2019
Article e86b2ff0784a8166623df93b4912e99a graph analyzed in batch mode at Wed May 15 11:17:34 2019
Article d6f16a5087bc41118870bb618c889b8e graph analyzed in batch mode at Wed May 15 11:17:34 2019
Article 16c85da5c033ad7371d8819c25a30a3e graph analyzed in batch mode at Wed May 15 11:17:34 2019
Article 6bd6768e76a1dd8340cfab1ec682fda2 graph analyzed in batch mode at Wed May 15 11:17:35 2019
Article 8bd97881b757e7dca17cf05ef7a230d0 graph analyzed in batch mode at Wed May 15 11:17:35 2019
Article c2d214c1256bbbe18db87cff241981fd graph analyzed in batch mode at Wed May 15 11:17:36 2019
Article bf44e33d08a721d803b8d2f81492d617 graph analyzed in batch mode at Wed May 15 11:17:36 2019
Article 40e5d1bcb40f2e461ab517e8b7c151bf graph analyzed in batch mode at Wed May 15 11:17:36 2019
Article 67530db05ae994d7c211e548098f9565 graph analyzed in batch mode at Wed May 15 11:17:36 2019
Article 42e0a0d3a7854bce2e5c04355cd00115 graph analyzed in batch mode at Wed May 15 11:17:36 2019
Article 84419625ac61b806f4f00ef05dc6e40d graph analyzed in batch mode at Wed May 15 11:17:37 2019
Article bfb6a5b636f5817f5474dfda5b792558 graph analyzed in batch mode at Wed May 15 11:17:37 2019
Article 3b0f75c08f111c0c6543c7ac3c077c0f graph analyzed in batch mode at Wed May 15 11:17:37 2019
Article bfb6a5b636f5817f5474dfda5b792558 graph analyzed in batch mode at Wed May 15 11:17:37 2019
Article c9a34078f6e53f4ea6076537b6b1aa51 graph analyzed in batch mode at Wed May 15 11:17:37 2019
Article 60b6e66ffdbdbb4ad85042046e183633 graph analyzed in batch mode at Wed May 15 11:17:37 2019
Article c9ba2cfed012f446d7bf1a3774854b9f graph analyzed in batch mode at Wed May 15 11:17:38 2019
Article a46ba80b992578dcc6168fc4523f4bed graph analyzed in batch mode at Wed May 15 11:17:38 2019
Article 24b13b4476046c2d348c8c8e1196a193 graph analyzed in batch mode at Wed May 15 11:17:38 2019
Article 6312f9511abd2af4d675adde59329e3d graph analyzed in batch mode at Wed May 15 11:17:38 2019
Article 75fc4598bf7bd59722e68671adf9a53d graph analyzed in batch mode at Wed May 15 11:17:38 2019
Article 0eb5ee41ac93960dd47731c0c5c9c896 graph analyzed in batch mode at Wed May 15 11:17:38 2019
Article dd1205074b6265de738fc11eff356edd graph analyzed in batch mode at Wed May 15 11:17:39 2019
Article c941cefe6f0df82a8099d8256a6e9d8d graph analyzed in batch mode at Wed May 15 11:17:39 2019
Article 15cd1b2d0fbf9003dbabedf63e4a2179 graph analyzed in batch mode at Wed May 15 11:17:39 2019
Article a15641a6e032566c07e9dfc3d05c5312 graph analyzed in batch mode at Wed May 15 11:17:39 2019
Article d54a1bbefb67dc3455dbcbf01612ff9f graph analyzed in batch mode at Wed May 15 11:17:39 2019
Article 5c2079406fc678967e1d5858e1397ffa graph analyzed in batch mode at Wed May 15 11:17:39 2019
Article e7b836f8d94a7aa9f0b177720f328b92 graph analyzed in batch mode at Wed May 15 11:17:40 2019
Article d29c5ac53e7ffb23926a96538bdda920 graph analyzed in batch mode at Wed May 15 11:17:40 2019
Article 1ddee65acfeceb0008164f7bbb9f7220 graph analyzed in batch mode at Wed May 15 11:17:40 2019
Article d6b93bd804d2feb42a681ff7c582360e graph analyzed in batch mode at Wed May 15 11:17:40 2019
Article b5079c4c993f664d0df08fcef714092c graph analyzed in batch mode at Wed May 15 11:17:41 2019
Article 549efe9817632cd214a90fb3bf5346c2 graph analyzed in batch mode at Wed May 15 11:17:41 2019
Article 8978e1681e0ca784f6a2be3adf05e577 graph analyzed in batch mode at Wed May 15 11:17:41 2019
Article a6c742a7f77d026647e1dd11b30fdd72 graph analyzed in batch mode at Wed May 15 11:17:41 2019
Article 015ec33588825b208f22fe4d5d728a1e graph analyzed in batch mode at Wed May 15 11:17:41 2019
Article cc8f39cf636e35cbfe4a82a653b5bf38 graph analyzed in batch mode at Wed May 15 11:17:41 2019
Article 77d815a672373298bd7e2f4db25fa361 graph analyzed in batch mode at Wed May 15 11:17:41 2019
Article 8b2336294ebba120bcadde81edea26a2 graph analyzed in batch mode at Wed May 15 11:17:42 2019
Article edcf82fc7539170a4fadd802c0b91143 graph analyzed in batch mode at Wed May 15 11:17:42 2019
Article b01102389841af8477bfc7f7eff85a04 graph analyzed in batch mode at Wed May 15 11:17:42 2019
Article 8885d79d0d0b322c856b0a7609d9356b graph analyzed in batch mode at Wed May 15 11:17:42 2019
Article 0301e3e022c0a2efdf7699b5e3355245 graph analyzed in batch mode at Wed May 15 11:17:43 2019
Article db193c5360cc75a1c60d2860a1b40a36 graph analyzed in batch mode at Wed May 15 11:17:43 2019
Article 58d10dd3587ac58c5e26a4d1d6c7505c graph analyzed in batch mode at Wed May 15 11:17:43 2019
Article df143746d31306f5f1e422411dc71572 graph analyzed in batch mode at Wed May 15 11:17:43 2019
Article b9928513659f1eedc67d30437c358e97 graph analyzed in batch mode at Wed May 15 11:17:43 2019
Article eac8c186ea4a3f815d3c326a4f1e394b graph analyzed in batch mode at Wed May 15 11:17:43 2019
Article 9ffa3c78bb829e6161b1dc0787f76a4c graph analyzed in batch mode at Wed May 15 11:17:44 2019
Article 6eadaba7deb68ee734432e19071b3571 graph analyzed in batch mode at Wed May 15 11:17:44 2019
Article 4804923c7191444d22267ea3944edcca graph analyzed in batch mode at Wed May 15 11:17:44 2019
Article 779b3f72033f02fa18781b99f0885cbb graph analyzed in batch mode at Wed May 15 11:17:44 2019
Article b85e4e68b142749ff28b2da2028b8ce9 graph analyzed in batch mode at Wed May 15 11:17:44 2019
Article 917ffbebc0b0b0b6ae7a1f4212dc004b graph analyzed in batch mode at Wed May 15 11:17:44 2019
Article 4804923c7191444d22267ea3944edcca graph analyzed in batch mode at Wed May 15 11:17:44 2019
Article 5ccc09a4c055d8e9834e38829f65c591 graph analyzed in batch mode at Wed May 15 11:17:44 2019
Article bd4c246559a0194d3f9b3d12480184c6 graph analyzed in batch mode at Wed May 15 11:17:45 2019
Article e4df82e572e1b8482b86575bee0ebb0a graph analyzed in batch mode at Wed May 15 11:17:45 2019
Article 48299bf7c74dc3a2b6c7576a8d095a60 graph analyzed in batch mode at Wed May 15 11:17:45 2019
Article 68ec7a0d9fdf49b5e6cc7d58ba9c769f graph analyzed in batch mode at Wed May 15 11:17:45 2019
Article ff9c7346b142aac265fcefa9ecac28be graph analyzed in batch mode at Wed May 15 11:17:45 2019
Article cf9187ffa2d2bc777bc79cb743e3b3a9 graph analyzed in batch mode at Wed May 15 11:17:47 2019
Article 10af63772b2b9d10cb707a64cfc31d1f graph analyzed in batch mode at Wed May 15 11:17:47 2019
Article ff9c7346b142aac265fcefa9ecac28be graph analyzed in batch mode at Wed May 15 11:17:47 2019
Article 40517e4cdc22489083e622553b72769a graph analyzed in batch mode at Wed May 15 11:17:47 2019
Article b31ab5803adff80c40c853e017045498 graph analyzed in batch mode at Wed May 15 11:17:47 2019
Article 6bb00d042a0b6ea73f96c133d3018396 graph analyzed in batch mode at Wed May 15 11:17:47 2019
Article 2cb1827e6ea5ab299dd6f7bd32cbd5d0 graph analyzed in batch mode at Wed May 15 11:17:47 2019
Article abd86520243e5bbb0b666cb1aa5e42bc graph analyzed in batch mode at Wed May 15 11:17:47 2019
Article 5337ba9ddf1a908786758d740bd4546f graph analyzed in batch mode at Wed May 15 11:17:47 2019
Article 02561f7ed7b6c2b74f29e449a8114481 graph analyzed in batch mode at Wed May 15 11:17:47 2019
Article 015ec33588825b208f22fe4d5d728a1e graph analyzed in batch mode at Wed May 15 11:17:48 2019
Article e6fb9e7c5b858c99dc710bc044cf7191 graph analyzed in batch mode at Wed May 15 11:17:48 2019
Article c7293e6fdd6a8ddb713b544d6d1d1003 graph analyzed in batch mode at Wed May 15 11:17:48 2019
Article 8ea3db3312c78e880230f68bfd4d3bf0 graph analyzed in batch mode at Wed May 15 11:17:49 2019
Article 971ace68fc1eb21a82f87cacb0dc5608 graph analyzed in batch mode at Wed May 15 11:17:49 2019
Article 45918014c6a469e6462a33975828632b graph analyzed in batch mode at Wed May 15 11:17:49 2019
Article 3cd9a9ef55820b672761c2f4142f1f0b graph analyzed in batch mode at Wed May 15 11:17:49 2019
Article bf3f4908d948f5aa834e6e45c72fb778 graph analyzed in batch mode at Wed May 15 11:17:49 2019
Article ca17618cb0462cbcebca524b0efe7d9f graph analyzed in batch mode at Wed May 15 11:17:49 2019
Article b82e2dcbac99e25b1be045436554dc14 graph analyzed in batch mode at Wed May 15 11:17:50 2019
Article 617ca0f8ea36122f21d3c0ccd4352d66 graph analyzed in batch mode at Wed May 15 11:17:50 2019
Article 264e0df70bf02c51f1ce8d0f073a2557 graph analyzed in batch mode at Wed May 15 11:17:51 2019
Article e6064abf020bc234fd77885531909cf4 graph analyzed in batch mode at Wed May 15 11:17:51 2019
Article f2db6cd0bba3017ff16ef8f0ce56844e graph analyzed in batch mode at Wed May 15 11:17:51 2019
Article 12f088355cc9434a3e26f5f752637d6e graph analyzed in batch mode at Wed May 15 11:17:51 2019
Article 10de6c8fff8b95f94e70cc276e7f69c6 graph analyzed in batch mode at Wed May 15 11:17:51 2019
Article 4ac4cf8514368838177123ce7503b508 graph analyzed in batch mode at Wed May 15 11:17:52 2019
Article 9b723a0f02f22bcda1c301fd1f3c2ac5 graph analyzed in batch mode at Wed May 15 11:17:52 2019
Article 9fecd158f366fd212281390483e2f31a graph analyzed in batch mode at Wed May 15 11:17:52 2019
Article 65ff4598bad97e583e7d0a5268aefa50 graph analyzed in batch mode at Wed May 15 11:17:53 2019
Article abba99c6cb43ca4179da1d661f0bf3bd graph analyzed in batch mode at Wed May 15 11:17:53 2019
Article e3eba91ae957cb7cb090bf689f6238c0 graph analyzed in batch mode at Wed May 15 11:17:54 2019
Article af328ef7311368b8d331a4194cea569d graph analyzed in batch mode at Wed May 15 11:17:54 2019
Article 7a7ca4eb1efaaa12f6609e03207746f8 graph analyzed in batch mode at Wed May 15 11:17:54 2019
Article 2f04b35c5a6b547c611f69f082a56a73 graph analyzed in batch mode at Wed May 15 11:17:55 2019
Article c335329e5341439c2a415154c484c3ec graph analyzed in batch mode at Wed May 15 11:17:55 2019
Article fa3564cbe0e4abb4f4d7c2c313df3a6f graph analyzed in batch mode at Wed May 15 11:17:55 2019
Article 872698515be6f8cef416a563020edb9c graph analyzed in batch mode at Wed May 15 11:17:56 2019
Article 6743afe03ef81de951a57e0f3760b738 graph analyzed in batch mode at Wed May 15 11:17:56 2019
Article 30481d60743b444f4ec162fa5b67cfb4 graph analyzed in batch mode at Wed May 15 11:17:56 2019
Article 218c76d319ddd90e687f36266f4fb575 graph analyzed in batch mode at Wed May 15 11:17:56 2019
Article 903baad3f6e385e313390c28a30a3638 graph analyzed in batch mode at Wed May 15 11:17:57 2019
Article cde38739d57c392de6230288a987d9ac graph analyzed in batch mode at Wed May 15 11:17:57 2019
Article f1724d874137421af5c0d59f1064ea8a graph analyzed in batch mode at Wed May 15 11:17:57 2019
Article 8210eb5a2bdffe58667327c90122fd93 graph analyzed in batch mode at Wed May 15 11:17:57 2019
Article 4a0a705587fab63e7570a9f3f654141e graph analyzed in batch mode at Wed May 15 11:17:58 2019
Article 4098fc660bf94cad16fb1723603b6b0f graph analyzed in batch mode at Wed May 15 11:17:58 2019
Article 010f3181a55b972e0ad538516e569953 graph analyzed in batch mode at Wed May 15 11:17:58 2019
Article ed662f3e681702ee029f74982739e98f graph analyzed in batch mode at Wed May 15 11:17:58 2019
Article 0f787787f265d1d33a57be673fc6de55 graph analyzed in batch mode at Wed May 15 11:17:58 2019
Article 457a4657f0786ddaccb27b0bba6c413f graph analyzed in batch mode at Wed May 15 11:17:58 2019
Article 49d3afab67a155ff092e81db377333aa graph analyzed in batch mode at Wed May 15 11:17:59 2019
Article 91cf63aecb2815b76629a456755f5a8d graph analyzed in batch mode at Wed May 15 11:17:59 2019
Article 4838873b7a2f744c332a63fdb97e575e graph analyzed in batch mode at Wed May 15 11:17:59 2019
Article 30481d60743b444f4ec162fa5b67cfb4 graph analyzed in batch mode at Wed May 15 11:18:00 2019
Article 6687ac0ffddca18c0a0ecdc6ea6482a7 graph analyzed in batch mode at Wed May 15 11:18:02 2019
Article 903baad3f6e385e313390c28a30a3638 graph analyzed in batch mode at Wed May 15 11:18:02 2019
Article 034c4baf40e43f16ca6ef079efbdd98c graph analyzed in batch mode at Wed May 15 11:18:02 2019
Article ed662f3e681702ee029f74982739e98f graph analyzed in batch mode at Wed May 15 11:18:02 2019
Article 8210eb5a2bdffe58667327c90122fd93 graph analyzed in batch mode at Wed May 15 11:18:02 2019
Article c33d0fffa685d9cf02f8a544aa4a466a graph analyzed in batch mode at Wed May 15 11:18:02 2019
Article 516109a7593a3e8271c9715275670005 graph analyzed in batch mode at Wed May 15 11:18:02 2019
Article 4df70f2b2a2a132e2e99bf8737671a23 graph analyzed in batch mode at Wed May 15 11:18:02 2019
Article 2abc12df21be99161fb246eef968be44 graph analyzed in batch mode at Wed May 15 11:18:02 2019
Article 0f787787f265d1d33a57be673fc6de55 graph analyzed in batch mode at Wed May 15 11:18:02 2019
Article 1b23c47914b20a89256f83f1b243bdd3 graph analyzed in batch mode at Wed May 15 11:18:03 2019
Article 8d8bb0e89c48bbfad33e49605d8c08d1 graph analyzed in batch mode at Wed May 15 11:18:03 2019
Article 7b567b37344cdb13bbaa9e7b4049b581 graph analyzed in batch mode at Wed May 15 11:18:03 2019
Article 672b9191a09c3d65379615056c7a2ef3 graph analyzed in batch mode at Wed May 15 11:18:03 2019
Article 7b2f9e70f4bb57fb165f2ae00ad5ba38 graph analyzed in batch mode at Wed May 15 11:18:03 2019
Article cd23237b2a5585d0a0331fc2cdcb047c graph analyzed in batch mode at Wed May 15 11:18:03 2019
Article a70b2137ee6c9570d9a87aaf4115d838 graph analyzed in batch mode at Wed May 15 11:18:03 2019
Article e035ff927f9ebb80082c79f811c221e7 graph analyzed in batch mode at Wed May 15 11:18:03 2019
Article a6c6797d86f7d54e1128878369028a0b graph analyzed in batch mode at Wed May 15 11:18:03 2019
Article aae5e1cc4df80930fa2534abd2a6ebf3 graph analyzed in batch mode at Wed May 15 11:18:03 2019
Article 46d5fb0638d881aa1cbf59fd6fee8550 graph analyzed in batch mode at Wed May 15 11:18:04 2019
Article 1577190cf00615d2104347771d2237d7 graph analyzed in batch mode at Wed May 15 11:18:04 2019
Article 415781baadeeec8680e0a6d279d28d49 graph analyzed in batch mode at Wed May 15 11:18:04 2019
Article e6ddc7db4b4db11c4a5cb02d0c923269 graph analyzed in batch mode at Wed May 15 11:18:04 2019
Article 27d20cd206b5d27ee9dab6fee0ad4cd2 graph analyzed in batch mode at Wed May 15 11:18:04 2019
Article 415781baadeeec8680e0a6d279d28d49 graph analyzed in batch mode at Wed May 15 11:18:04 2019
Article 8e0e8d8e571ebd3a2a3e9fac7d10ba25 graph analyzed in batch mode at Wed May 15 11:18:04 2019
Article c9366a1f7ee4dd4091f1c4738c293b9f graph analyzed in batch mode at Wed May 15 11:18:04 2019
Article 3abdd678ab4a5dc282b057f9d3d84a25 graph analyzed in batch mode at Wed May 15 11:18:05 2019
Article 015ec33588825b208f22fe4d5d728a1e graph analyzed in batch mode at Wed May 15 11:18:05 2019
Article aecd907f43abdbaac83bda45d4a68796 graph analyzed in batch mode at Wed May 15 11:18:05 2019
Article 5aac34c057cd015055bbe88c05d95f3b graph analyzed in batch mode at Wed May 15 11:18:05 2019
Article b31ab5803adff80c40c853e017045498 graph analyzed in batch mode at Wed May 15 11:18:05 2019
Article a6424488f3ed91113687c72119f07059 graph analyzed in batch mode at Wed May 15 11:18:05 2019
Article bdd1ff56535da67e57480a1f12817f3b graph analyzed in batch mode at Wed May 15 11:18:06 2019
Article 77ed929a7995720d5a5a50207c17ed2e graph analyzed in batch mode at Wed May 15 11:18:06 2019
Article 51736783e6e21a32315531b9cae6be92 graph analyzed in batch mode at Wed May 15 11:18:07 2019
Article 5bac5e2d2a56c4867c593925802502c2 graph analyzed in batch mode at Wed May 15 11:18:07 2019
Article 0e908d160f56893cd32ae8309ad200ad graph analyzed in batch mode at Wed May 15 11:18:07 2019
Article 0d5be7d356756e9440dbc60423c0d3c7 graph analyzed in batch mode at Wed May 15 11:18:07 2019
Article e371133e0ed1ffd8a114f2a0c70293bf graph analyzed in batch mode at Wed May 15 11:18:08 2019
Article 09840dcff7cd0bf3f552ebf801b188d9 graph analyzed in batch mode at Wed May 15 11:18:08 2019
Article 13d5785cea8e3cd3dce09bc03cdd222d graph analyzed in batch mode at Wed May 15 11:18:09 2019
Article 13d5785cea8e3cd3dce09bc03cdd222d graph analyzed in batch mode at Wed May 15 11:18:09 2019
Article 2d13c8147eaf9da7047735e530bbd748 graph analyzed in batch mode at Wed May 15 11:18:10 2019
Article ff9c7346b142aac265fcefa9ecac28be graph analyzed in batch mode at Wed May 15 11:18:10 2019
Article a447ad2bb13a64228fabcf080157ecf9 graph analyzed in batch mode at Wed May 15 11:18:10 2019
Article 20a5173eb3ba69e5c1743a3a14989e4c graph analyzed in batch mode at Wed May 15 11:18:10 2019
Article d0c4c304519e1786747d4f91599bdf25 graph analyzed in batch mode at Wed May 15 11:18:10 2019
Article 43689c33b7eb369bcb250d9c185cc2f7 graph analyzed in batch mode at Wed May 15 11:18:10 2019
Article 1f587e0b23aced8a4246e45ce1ccbfd0 graph analyzed in batch mode at Wed May 15 11:18:10 2019
Article 60b98acb51eb4d9bbcae1b987f6b6443 graph analyzed in batch mode at Wed May 15 11:18:10 2019
Article 68dbfe3c756129b51196270d892086c1 graph analyzed in batch mode at Wed May 15 11:18:11 2019
Article 43f6e0879fd919e409da99e9d7dde303 graph analyzed in batch mode at Wed May 15 11:18:11 2019
Article 77479ea5cfbc6a27d6907532ebf26a7e graph analyzed in batch mode at Wed May 15 11:18:11 2019
Article eeb36fd6a395818be11b50d12108c8a2 graph analyzed in batch mode at Wed May 15 11:18:11 2019
Article 58fb751bc03ed881a3f3cc77f6134993 graph analyzed in batch mode at Wed May 15 11:18:11 2019
Article b837e34aafe6b569960809cf62e88bf2 graph analyzed in batch mode at Wed May 15 11:18:11 2019
Article 023adfde9ce632b81f463743d0aba4d0 graph analyzed in batch mode at Wed May 15 11:18:12 2019
Article 103ef8d20e3b32f2dce88a0f19c00299 graph analyzed in batch mode at Wed May 15 11:18:12 2019
Article af47d554274a7f478cb1981e4c3e2b18 graph analyzed in batch mode at Wed May 15 11:18:12 2019
Article 7c22b4c08f1d1284e20a952b6c93937e graph analyzed in batch mode at Wed May 15 11:18:12 2019
Article 7196cceb4a10aba85daa53cd55967c39 graph analyzed in batch mode at Wed May 15 11:18:13 2019
Article 617ca0f8ea36122f21d3c0ccd4352d66 graph analyzed in batch mode at Wed May 15 11:18:14 2019
Article 76bd3a541474c8ba23eb8867a10cabf4 graph analyzed in batch mode at Wed May 15 11:18:14 2019
Article 1e1ca56b7b409c37c5caab3b57cf7b2f graph analyzed in batch mode at Wed May 15 11:18:14 2019
Article e3691638d9f94e57b0d3c2215d823523 graph analyzed in batch mode at Wed May 15 11:18:14 2019
Article bd9736c5eecd48f8a1fc8a9b9b518453 graph analyzed in batch mode at Wed May 15 11:18:15 2019
Article e106ef083fceff4110953f9aca11e437 graph analyzed in batch mode at Wed May 15 11:18:15 2019
Article aa620db1b4be955872ba6ede0b8f27bf graph analyzed in batch mode at Wed May 15 11:18:15 2019
Article 1c75df1f6d865f812cdd704b219a6c97 graph analyzed in batch mode at Wed May 15 11:18:15 2019
Article 7cdf129ebe567b637688babf05ea2f18 graph analyzed in batch mode at Wed May 15 11:18:15 2019
Article c193daf607c78478deba570b531c82b4 graph analyzed in batch mode at Wed May 15 11:18:15 2019
Article 9fa4298a84c6c1965306c42d339de864 graph analyzed in batch mode at Wed May 15 11:18:15 2019
Article 9888557add0cf8584b0123485f24abfc graph analyzed in batch mode at Wed May 15 11:18:15 2019
Article 859f370e73cfede28f049a4860fdf9d4 graph analyzed in batch mode at Wed May 15 11:18:16 2019
Article f1faa98b4cdfc123408ca3f935f96227 graph analyzed in batch mode at Wed May 15 11:18:16 2019
Article 895868258468dea42d60f2bf693cad45 graph analyzed in batch mode at Wed May 15 11:18:16 2019
Article 24b53e248435b8e13c6d2f23689f1a9c graph analyzed in batch mode at Wed May 15 11:18:16 2019
Article 64bfd11c8034df0d111cc3984a64878e graph analyzed in batch mode at Wed May 15 11:18:16 2019
Article f3e3ff1d6e00781359a8f74f566333a3 graph analyzed in batch mode at Wed May 15 11:18:17 2019
Article 02f663d2dfbcd709f399ea1fa9697086 graph analyzed in batch mode at Wed May 15 11:18:17 2019
Article 43689c33b7eb369bcb250d9c185cc2f7 graph analyzed in batch mode at Wed May 15 11:18:17 2019
Article 15f1babfd3ff28c885cd5b076974d0d9 graph analyzed in batch mode at Wed May 15 11:18:17 2019
Article 2f0ccc0d59bc5883b6e178d6c4f5cede graph analyzed in batch mode at Wed May 15 11:18:18 2019
Article c941cefe6f0df82a8099d8256a6e9d8d graph analyzed in batch mode at Wed May 15 11:18:18 2019
Article 65d4023ba401bd77165ed9088bbb9dd7 graph analyzed in batch mode at Wed May 15 11:18:18 2019
Article 976f2f4f347f4052ef0e70e70b997c90 graph analyzed in batch mode at Wed May 15 11:18:18 2019
Article 2d5350aada3d1a88027fe2e5c1671f6a graph analyzed in batch mode at Wed May 15 11:18:18 2019
Article 8e02628eeaac8f4cb792e224965be281 graph analyzed in batch mode at Wed May 15 11:18:19 2019
Article 4a014793e9eb132564c3580ffc6a5dab graph analyzed in batch mode at Wed May 15 11:18:19 2019
Article 65d4023ba401bd77165ed9088bbb9dd7 graph analyzed in batch mode at Wed May 15 11:18:19 2019
Article 3de83fd9649817123a658bf63c7c125f graph analyzed in batch mode at Wed May 15 11:18:19 2019
Article 4a014793e9eb132564c3580ffc6a5dab graph analyzed in batch mode at Wed May 15 11:18:19 2019
Article ef96f1ed0c85b762faf84c60b97fcb4f graph analyzed in batch mode at Wed May 15 11:18:19 2019
Article af2eb29f6f1059a5396157769f8ab826 graph analyzed in batch mode at Wed May 15 11:18:20 2019
Article bda3b3b264952d044e5b76614bf95784 graph analyzed in batch mode at Wed May 15 11:18:20 2019
Article ef96f1ed0c85b762faf84c60b97fcb4f graph analyzed in batch mode at Wed May 15 11:18:20 2019
Article f3ee6d05ed4f536cd4fa2866acb418a0 graph analyzed in batch mode at Wed May 15 11:18:20 2019
Article 40d2773daabcac98df7fc864d101b817 graph analyzed in batch mode at Wed May 15 11:18:21 2019
Article 82b478cafec7c11b620a10003fc9afa3 graph analyzed in batch mode at Wed May 15 11:18:21 2019
Article 8ecb79de63a274ac207c5f20a5dffdf9 graph analyzed in batch mode at Wed May 15 11:18:21 2019
Article 09bf00049b3ba06c669f8d3cff53bb46 graph analyzed in batch mode at Wed May 15 11:18:21 2019
Article 802974f5910385f01dc9cd64bee5da72 graph analyzed in batch mode at Wed May 15 11:18:21 2019
Article 64080fb0475cc29712bca25edd5d7409 graph analyzed in batch mode at Wed May 15 11:18:21 2019
Article ac118b877b8e1e3518ea4b31296df45c graph analyzed in batch mode at Wed May 15 11:18:21 2019
Article 033228a8b3bc62b3e2c21ac9407de93a graph analyzed in batch mode at Wed May 15 11:18:21 2019
Article 20a0264651968f16db01735f4ea1cbff graph analyzed in batch mode at Wed May 15 11:18:21 2019
Article bca4c3d86f7e88256cad7ba12d4f7fbb graph analyzed in batch mode at Wed May 15 11:18:22 2019
Article e3e39dee6c2bf7cacd8b31825c5cbe2b graph analyzed in batch mode at Wed May 15 11:18:22 2019
Article 85a4701dfc6a04ef5e1b2e40e67c8f67 graph analyzed in batch mode at Wed May 15 11:18:22 2019
Article 3a2fd170036fe86a99af1efba249b656 graph analyzed in batch mode at Wed May 15 11:18:22 2019
Article cf36d7ad930de497913225b502593703 graph analyzed in batch mode at Wed May 15 11:18:22 2019
Article 8bcb27c5f536deab16c2b2f5e548c2ba graph analyzed in batch mode at Wed May 15 11:18:22 2019
Article ca84d566b988bbc134ada1749444b67c graph analyzed in batch mode at Wed May 15 11:18:22 2019
Article 15aa3376f99c906b696e4c13d6d24dfc graph analyzed in batch mode at Wed May 15 11:18:22 2019
Article f4c69057f5b89fba90bcc21cb8c57909 graph analyzed in batch mode at Wed May 15 11:18:23 2019
Article 6e022b4621639e3b48e95422e8b99240 graph analyzed in batch mode at Wed May 15 11:18:23 2019
Article da1d61d1c8376b14474322c5c2a05fc7 graph analyzed in batch mode at Wed May 15 11:18:23 2019
Article 3f675b6b80832417a764353d97cb921b graph analyzed in batch mode at Wed May 15 11:18:23 2019
Article a495ef03c0d1155ae1120202fe9eb181 graph analyzed in batch mode at Wed May 15 11:18:23 2019
Article add216a01aef4d1f445f05849e4abec1 graph analyzed in batch mode at Wed May 15 11:18:23 2019
Article 294bc8d3fcceec4149cda73f4d3247f5 graph analyzed in batch mode at Wed May 15 11:18:24 2019
Article 6ea7c4e689228669c329c83bf9f10dc6 graph analyzed in batch mode at Wed May 15 11:18:24 2019
Article a0c459eb306a486e0ed82087aeb0c199 graph analyzed in batch mode at Wed May 15 11:18:24 2019
Article 1ab70a53778913b202b76905a2ebdc62 graph analyzed in batch mode at Wed May 15 11:18:24 2019
Article 399afacc3b738dd2c0c2ef8aca98adad graph analyzed in batch mode at Wed May 15 11:18:25 2019
Article 969b77652b0bc48dfe6804f3603c884b graph analyzed in batch mode at Wed May 15 11:18:26 2019
Article d85334c4d72fbf81e50b8b6efb3d79c2 graph analyzed in batch mode at Wed May 15 11:18:26 2019
Article 0a8fd09c7661c6826bfa9622f401114b graph analyzed in batch mode at Wed May 15 11:18:26 2019
Article abe1d73891e39b41ccfd56a9f70256c1 graph analyzed in batch mode at Wed May 15 11:18:26 2019
Article 273e991a9dfc77cfa67cbc2aebc92a5d graph analyzed in batch mode at Wed May 15 11:18:26 2019
Article 67bdad2d6a839d7e37d199c6bcb0de34 graph analyzed in batch mode at Wed May 15 11:18:26 2019
Article dc09ce31504610c80f5c97e2ffdff3fd graph analyzed in batch mode at Wed May 15 11:18:27 2019
Article 32f977e36c47a80ba66cff1032901897 graph analyzed in batch mode at Wed May 15 11:18:27 2019
Article b8454039c3303fce8f8edc273b9cc387 graph analyzed in batch mode at Wed May 15 11:18:27 2019
Article f48753ec614d6b349151c34422246bf1 graph analyzed in batch mode at Wed May 15 11:18:27 2019
Article c2ad9f39347e5a8413330e01aaf9599d graph analyzed in batch mode at Wed May 15 11:18:27 2019
Article 0695e7936a7824c2272f5ddbfb82593d graph analyzed in batch mode at Wed May 15 11:18:27 2019
Article 0b3e5cc5b39f612954223022a44f6ff5 graph analyzed in batch mode at Wed May 15 11:18:27 2019
Article 6b5095b2041fa5aee7af50d42efc7b8f graph analyzed in batch mode at Wed May 15 11:18:27 2019
Article f21b513c7e2d848919b7573be3550a8a graph analyzed in batch mode at Wed May 15 11:18:27 2019
Article f5785bebac257c1ee6bccb921e7c930c graph analyzed in batch mode at Wed May 15 11:18:27 2019
Article a77249cc51c50ed0d6ed43189890a802 graph analyzed in batch mode at Wed May 15 11:18:28 2019
Article 80ac0b157df28ba92c834118e9f6e39b graph analyzed in batch mode at Wed May 15 11:18:28 2019
Article cdf77bdeb69d53d677978ba699288080 graph analyzed in batch mode at Wed May 15 11:18:28 2019
Article e691d8f0adf7891ad419bd1db3a598b4 graph analyzed in batch mode at Wed May 15 11:18:28 2019
Article 42a65f8764cd0cf6077dbd5635068fcc graph analyzed in batch mode at Wed May 15 11:18:28 2019
Article a20153a5d83f035eabf64bab160beedd graph analyzed in batch mode at Wed May 15 11:18:28 2019
Article 3c602893673c787ea3fa8eeacedfe49f graph analyzed in batch mode at Wed May 15 11:18:28 2019
Article 8b7a94d5e908b7fc6b91f1df8da54da5 graph analyzed in batch mode at Wed May 15 11:18:28 2019
Article bcd04d4d891fe0f6254b5a9c21ee40cc graph analyzed in batch mode at Wed May 15 11:18:29 2019
Article efdb557ceb4de0b48cd684005985a0be graph analyzed in batch mode at Wed May 15 11:18:29 2019
Article 3c602893673c787ea3fa8eeacedfe49f graph analyzed in batch mode at Wed May 15 11:18:29 2019
Article 22f728e23498eec6fbc6d57374c2d6ea graph analyzed in batch mode at Wed May 15 11:18:29 2019
Article 8ade133ffb04a7c11c97bd0b7e3ac4b0 graph analyzed in batch mode at Wed May 15 11:18:29 2019
Article b4127e235c20e48f9aab0c4ff70ae13f graph analyzed in batch mode at Wed May 15 11:18:29 2019
Article b4127e235c20e48f9aab0c4ff70ae13f graph analyzed in batch mode at Wed May 15 11:18:30 2019
Article 181c91ac1bf86f6c8e5058c0c08ef0e5 graph analyzed in batch mode at Wed May 15 11:18:30 2019
Article 80c2fcbd952d69942efc13909ee00eee graph analyzed in batch mode at Wed May 15 11:18:30 2019
Article 181c91ac1bf86f6c8e5058c0c08ef0e5 graph analyzed in batch mode at Wed May 15 11:18:30 2019
Article 1626e2d8dd896729a9e418df83a68336 graph analyzed in batch mode at Wed May 15 11:18:30 2019
Article 1626e2d8dd896729a9e418df83a68336 graph analyzed in batch mode at Wed May 15 11:18:31 2019
Article 390ddcbb29dbb79659bee7f04aa754d1 graph analyzed in batch mode at Wed May 15 11:18:31 2019
Article bccdfc555cf0ac9a6068967782c62ef6 graph analyzed in batch mode at Wed May 15 11:18:31 2019
Article efdb3779fc068b56565a7b5c3a427457 graph analyzed in batch mode at Wed May 15 11:18:31 2019
Article 1756e7b5eef91dace0271688764ff5d4 graph analyzed in batch mode at Wed May 15 11:18:31 2019
Article 6e704130040932dc42f7f13242e8c43e graph analyzed in batch mode at Wed May 15 11:18:31 2019
Article 5c97d49a8d3ee6446fd26bb3d689d27f graph analyzed in batch mode at Wed May 15 11:18:31 2019
Article 010f3181a55b972e0ad538516e569953 graph analyzed in batch mode at Wed May 15 11:18:31 2019
Article ab9ef46fba74535087e8af1b4f4592a2 graph analyzed in batch mode at Wed May 15 11:18:31 2019
Article 521fe58f587d26f428c7c149e3113ee2 graph analyzed in batch mode at Wed May 15 11:18:32 2019
Article 2270a840b370ff93b0c408c2b12c0978 graph analyzed in batch mode at Wed May 15 11:18:32 2019
Article 70f0b4916e0fd53271bedd1083b9ab55 graph analyzed in batch mode at Wed May 15 11:18:32 2019
Article f7678721415d9bc085ea3e1a50e70dab graph analyzed in batch mode at Wed May 15 11:18:32 2019
Article f6d2211d1e324f35134f29c56b45e4d6 graph analyzed in batch mode at Wed May 15 11:18:32 2019
Article 390ddcbb29dbb79659bee7f04aa754d1 graph analyzed in batch mode at Wed May 15 11:18:32 2019
Article e691d8f0adf7891ad419bd1db3a598b4 graph analyzed in batch mode at Wed May 15 11:18:33 2019
Article 0ead44958f18be72e97dd8124d520042 graph analyzed in batch mode at Wed May 15 11:18:33 2019
Article ac00d6eb2f0c04e4a7028e7fa993a49b graph analyzed in batch mode at Wed May 15 11:18:33 2019
Article ac00d6eb2f0c04e4a7028e7fa993a49b graph analyzed in batch mode at Wed May 15 11:18:33 2019
Article 77a6890ac241f006462259c6b06aaa9d graph analyzed in batch mode at Wed May 15 11:18:33 2019
Article e691d8f0adf7891ad419bd1db3a598b4 graph analyzed in batch mode at Wed May 15 11:18:33 2019
Article 77a6890ac241f006462259c6b06aaa9d graph analyzed in batch mode at Wed May 15 11:18:33 2019
Article e691d8f0adf7891ad419bd1db3a598b4 graph analyzed in batch mode at Wed May 15 11:18:34 2019
Article e691d8f0adf7891ad419bd1db3a598b4 graph analyzed in batch mode at Wed May 15 11:18:34 2019
Article e88a595b8ab1633cbcefd4d23dd62fe7 graph analyzed in batch mode at Wed May 15 11:18:34 2019
Article e691d8f0adf7891ad419bd1db3a598b4 graph analyzed in batch mode at Wed May 15 11:18:34 2019
Article e88a595b8ab1633cbcefd4d23dd62fe7 graph analyzed in batch mode at Wed May 15 11:18:34 2019
Article e691d8f0adf7891ad419bd1db3a598b4 graph analyzed in batch mode at Wed May 15 11:18:34 2019
Article 7cbf9578788ad07361c4992239bc4f72 graph analyzed in batch mode at Wed May 15 11:18:34 2019
Article c6672e870847ad1ae38aadb79fc1e514 graph analyzed in batch mode at Wed May 15 11:18:35 2019
Article d5056a36908389e5dc388e91a55880a2 graph analyzed in batch mode at Wed May 15 11:18:35 2019
Article 7b9ae7f40dcc81729681f59e0ca92afa graph analyzed in batch mode at Wed May 15 11:18:35 2019
Article 948b6ff60a5498ba954c2da7e156c591 graph analyzed in batch mode at Wed May 15 11:18:35 2019
Article 434320d1f7a4dee54369244278589e1f graph analyzed in batch mode at Wed May 15 11:18:35 2019
Article c25ccbe1536c9201195f7065ffdd8127 graph analyzed in batch mode at Wed May 15 11:18:35 2019
Article 3967c153ff2a8afdbc1a98ad5a93779a graph analyzed in batch mode at Wed May 15 11:18:35 2019
Article ca28e3f4c7f780d45c3245260d86df06 graph analyzed in batch mode at Wed May 15 11:18:35 2019
Article 983f671f9986599a955c31dfcc28a335 graph analyzed in batch mode at Wed May 15 11:18:35 2019
Article 6616def2ccbd2f5ba7b4f9a683a3df07 graph analyzed in batch mode at Wed May 15 11:18:35 2019
Article 7fdb7d214f9e161350908acc2ad3a181 graph analyzed in batch mode at Wed May 15 11:18:35 2019
Article 23a2c7c3897de2720b63b73afd9da87c graph analyzed in batch mode at Wed May 15 11:18:35 2019
Article 7a739d253b3d4061304f41b040ef84e0 graph analyzed in batch mode at Wed May 15 11:18:36 2019
Article 84fb6256dfdecc38ff7d485e4ea07de7 graph analyzed in batch mode at Wed May 15 11:18:36 2019
Article e691d8f0adf7891ad419bd1db3a598b4 graph analyzed in batch mode at Wed May 15 11:18:36 2019
Article e0b1a606cdd0f0c78e4fe0a2756ddf96 graph analyzed in batch mode at Wed May 15 11:18:36 2019
Article 92b881e56054ffd0c2cb8b09f3f37122 graph analyzed in batch mode at Wed May 15 11:18:36 2019
Article e691d8f0adf7891ad419bd1db3a598b4 graph analyzed in batch mode at Wed May 15 11:18:36 2019
Article c602c03b381928544c771f5308e9bc45 graph analyzed in batch mode at Wed May 15 11:18:36 2019
Article 0863041582613cd70f61ff6bbf1850cf graph analyzed in batch mode at Wed May 15 11:18:36 2019
Article fad60a370082a0d5a6a723f456693bc8 graph analyzed in batch mode at Wed May 15 11:18:37 2019
Article 38f338a8a34abbd943689bd402de18c2 graph analyzed in batch mode at Wed May 15 11:18:37 2019
Article ecbc36559887a92c11228d74020302e1 graph analyzed in batch mode at Wed May 15 11:18:37 2019
Article e33e447474168b40a2e6398956d9c531 graph analyzed in batch mode at Wed May 15 11:18:37 2019
Article 65d4023ba401bd77165ed9088bbb9dd7 graph analyzed in batch mode at Wed May 15 11:18:38 2019
Article 8536977b75071aabaa6a13fb77c0cf1a graph analyzed in batch mode at Wed May 15 11:18:38 2019
Article 307a92565d391f3aa4ce4eab1aa45e15 graph analyzed in batch mode at Wed May 15 11:18:38 2019
Article 99c196c8029563c5b91a7916709a0596 graph analyzed in batch mode at Wed May 15 11:18:38 2019
Article 4222aa371de4e8a13f15d39d0408eb1e graph analyzed in batch mode at Wed May 15 11:18:39 2019
Article 8e5c38e3ebd015d4a33743d68f334031 graph analyzed in batch mode at Wed May 15 11:18:39 2019
Article c6672e870847ad1ae38aadb79fc1e514 graph analyzed in batch mode at Wed May 15 11:18:39 2019
Article 7a5a26202bf9040c8272fb59ff59efe1 graph analyzed in batch mode at Wed May 15 11:18:39 2019
Article 5d700a13a1826ec9701c8ec9f7d0e0d3 graph analyzed in batch mode at Wed May 15 11:18:39 2019
Article 7a5a26202bf9040c8272fb59ff59efe1 graph analyzed in batch mode at Wed May 15 11:18:39 2019
Article 2df565ec26f41dbae6437e4a7cc625c9 graph analyzed in batch mode at Wed May 15 11:18:40 2019
Article 2df565ec26f41dbae6437e4a7cc625c9 graph analyzed in batch mode at Wed May 15 11:18:40 2019
Article 1eedc17f70df2fbba2498ba879164e8f graph analyzed in batch mode at Wed May 15 11:18:40 2019
Article f232b9cbf424ab505a7e895c7c6a510a graph analyzed in batch mode at Wed May 15 11:18:40 2019
Article f232b9cbf424ab505a7e895c7c6a510a graph analyzed in batch mode at Wed May 15 11:18:40 2019
Article 85123edba3ecca3371f8010cbc65ff06 graph analyzed in batch mode at Wed May 15 11:18:41 2019
Article c0009aca3dd1d06c5e3861e5366a6723 graph analyzed in batch mode at Wed May 15 11:18:41 2019
Article 9458dc08e5b39a5990cfb90974fbf4fe graph analyzed in batch mode at Wed May 15 11:18:41 2019
Article 176950cc3fd4098b5623640f6469e82c graph analyzed in batch mode at Wed May 15 11:18:41 2019
Article 532e114ee110e23e093efbac0fbe8212 graph analyzed in batch mode at Wed May 15 11:18:41 2019
Article 170fb7d919163b394f1498eeda3eb835 graph analyzed in batch mode at Wed May 15 11:18:41 2019
Article ef2f47ed81ef2686c27b4bd8c4fcaf9e graph analyzed in batch mode at Wed May 15 11:18:41 2019
Article 2204b9e50459df78b5810ac968840df4 graph analyzed in batch mode at Wed May 15 11:18:41 2019
Article fa5a0503693ced95e76b102f6a2b763a graph analyzed in batch mode at Wed May 15 11:18:41 2019
Article 98f7302a080be8126a67de4617c04641 graph analyzed in batch mode at Wed May 15 11:18:41 2019
Article 19ac4ff2b6bdf745873369a7bf4c230c graph analyzed in batch mode at Wed May 15 11:18:41 2019
Article bebb11e8b3fec80618815f5e649f2c4b graph analyzed in batch mode at Wed May 15 11:18:42 2019
Article c0009aca3dd1d06c5e3861e5366a6723 graph analyzed in batch mode at Wed May 15 11:18:42 2019
Article 8e0909202813dba4580640c534e47626 graph analyzed in batch mode at Wed May 15 11:18:42 2019
Article 39598638a6d0b223396bfb9eb8c62e2a graph analyzed in batch mode at Wed May 15 11:18:42 2019
Article 5e94ad539e5e6f69153f09ca2aa48ba4 graph analyzed in batch mode at Wed May 15 11:18:42 2019
Article e691d8f0adf7891ad419bd1db3a598b4 graph analyzed in batch mode at Wed May 15 11:18:42 2019
Article c0009aca3dd1d06c5e3861e5366a6723 graph analyzed in batch mode at Wed May 15 11:18:42 2019
Article e691d8f0adf7891ad419bd1db3a598b4 graph analyzed in batch mode at Wed May 15 11:18:42 2019
Article c0009aca3dd1d06c5e3861e5366a6723 graph analyzed in batch mode at Wed May 15 11:18:42 2019
Article 617ca0f8ea36122f21d3c0ccd4352d66 graph analyzed in batch mode at Wed May 15 11:18:42 2019
Article e691d8f0adf7891ad419bd1db3a598b4 graph analyzed in batch mode at Wed May 15 11:18:42 2019
Article e691d8f0adf7891ad419bd1db3a598b4 graph analyzed in batch mode at Wed May 15 11:18:43 2019
Article 581782702647e63f28dc4b052ad599e9 graph analyzed in batch mode at Wed May 15 11:18:43 2019
Article a1b7ec3b63a8cfdf7405f89f30b12c1f graph analyzed in batch mode at Wed May 15 11:18:43 2019
Article 0e96d93adaaf791c0f5f0b211fc5ba79 graph analyzed in batch mode at Wed May 15 11:18:43 2019
Article e691d8f0adf7891ad419bd1db3a598b4 graph analyzed in batch mode at Wed May 15 11:18:43 2019
Article 30d1f397ed8258174d874c9fabfb48b4 graph analyzed in batch mode at Wed May 15 11:18:44 2019
Article e691d8f0adf7891ad419bd1db3a598b4 graph analyzed in batch mode at Wed May 15 11:18:44 2019
Article 71f7278ae4167a4015b6198e213298cb graph analyzed in batch mode at Wed May 15 11:18:44 2019
Article 74a11487529175188bd1ff3569cf3c27 graph analyzed in batch mode at Wed May 15 11:18:44 2019
Article a5c47abeaff7a61c7419e230cb895993 graph analyzed in batch mode at Wed May 15 11:18:45 2019
Article 5caa08b12900b9d07816af0abc7f9cfb graph analyzed in batch mode at Wed May 15 11:18:45 2019
Article 33e9ebde7f0e54574d7d0464692e2821 graph analyzed in batch mode at Wed May 15 11:18:45 2019
Article 7d83125b1db58f1e0cff0deba498d417 graph analyzed in batch mode at Wed May 15 11:18:45 2019
Article 80b821ba97c9fc2340be75facb5552da graph analyzed in batch mode at Wed May 15 11:18:45 2019
Article 9e16179d556535806b920563489302ae graph analyzed in batch mode at Wed May 15 11:18:45 2019
Article cb8149edbdc338db237f55f2a8415c7a graph analyzed in batch mode at Wed May 15 11:18:45 2019
Article ea2433b616f9c02d51b49914a07e5cea graph analyzed in batch mode at Wed May 15 11:18:45 2019
Article cf8c4aec1ebfc53e9e8bdca8063e9e58 graph analyzed in batch mode at Wed May 15 11:18:45 2019
Article 77f819119bcf216ea1409c6cdafe9038 graph analyzed in batch mode at Wed May 15 11:18:45 2019
Article 308acdc132c7f0ecfce355fddfae30d2 graph analyzed in batch mode at Wed May 15 11:18:46 2019
Article 55dd015f54b76ad4d217f8cb02a96844 graph analyzed in batch mode at Wed May 15 11:18:46 2019
